<?xml version="1.0" standalone="yes"?>

<svg version="1.1" viewBox="0.0 0.0 960.0 540.0" fill="none" stroke="none" stroke-linecap="square" stroke-miterlimit="10" xmlns="http://www.w3.org/2000/svg" xmlns:xlink="http://www.w3.org/1999/xlink"><clipPath id="p.0"><path d="m0 0l960.0 0l0 540.0l-960.0 0l0 -540.0z" clip-rule="nonzero"></path></clipPath><g clip-path="url(#p.0)"><path fill="#ffffff" d="m0 0l960.0 0l0 540.0l-960.0 0z" fill-rule="evenodd"></path><path fill="#ffab40" d="m61.102364 40.874016l837.7953 0l0 67.81102l-837.7953 0z" fill-rule="evenodd"></path><path fill="#ffffff" d="m401.43756 86.49953l-8.25 -21.34375l5.1875 0l5.90625 16.421875l5.890625 -16.421875l5.1875 0l-8.21875 21.34375l-5.703125 0zm17.825562 -17.125q-0.984375 0 -1.71875 -0.703125q-0.71875 -0.703125 -0.71875 -1.71875q0 -1.03125 0.71875 -1.71875q0.734375 -0.6875 1.71875 -0.6875q1.03125 0 1.734375 0.6875q0.703125 0.6875 0.703125 1.71875q0 1.015625 -0.703125 1.71875q-0.703125 0.703125 -1.734375 0.703125zm-2.015625 17.125l0 -15.453125l4.0625 0l0 15.453125l-4.0625 0zm13.658508 0.390625q-2.015625 0 -3.859375 -0.640625q-1.828125 -0.640625 -3.046875 -1.765625l1.765625 -2.84375q0.921875 0.859375 2.453125 1.484375q1.546875 0.625 2.890625 0.625q2.59375 0 2.59375 -1.671875q0 -0.640625 -0.703125 -0.953125q-0.6875 -0.328125 -1.671875 -0.546875l-2.203125 -0.453125q-4.609375 -0.984375 -4.609375 -4.59375q0 -2.15625 1.765625 -3.515625q1.78125 -1.359375 4.5625 -1.359375q3.625 0 6.25 2.109375l-1.640625 2.796875q-0.703125 -0.75 -1.921875 -1.265625q-1.21875 -0.53125 -2.65625 -0.53125q-1.109375 0 -1.765625 0.453125q-0.65625 0.4375 -0.65625 1.078125q0 0.578125 0.671875 0.875q0.671875 0.28125 1.6875 0.5q1.03125 0.203125 2.203125 0.46875q1.1875 0.265625 2.203125 0.8125q1.03125 0.546875 1.703125 1.484375q0.671875 0.921875 0.671875 2.484375q0 2.234375 -1.828125 3.609375q-1.8125 1.359375 -4.859375 1.359375zm11.717163 -17.515625q-0.984375 0 -1.71875 -0.703125q-0.71875 -0.703125 -0.71875 -1.71875q0 -1.03125 0.71875 -1.71875q0.734375 -0.6875 1.71875 -0.6875q1.03125 0 1.734375 0.6875q0.703125 0.6875 0.703125 1.71875q0 1.015625 -0.703125 1.71875q-0.703125 0.703125 -1.734375 0.703125zm-2.015625 17.125l0 -15.453125l4.0625 0l0 15.453125l-4.0625 0zm13.283508 0.390625q-4.390625 0 -4.390625 -4.234375l0 -8.0625l-2.5625 0l0 -3.546875l2.5625 0l0 -4.234375l4.09375 0l0 4.234375l3.140625 0l0 3.546875l-3.140625 0l0 6.984375q0 0.734375 0.359375 1.21875q0.375 0.46875 1.046875 0.46875q0.96875 0 1.421875 -0.453125l0.859375 3.078125q-1.0625 1.0 -3.390625 1.0zm21.086182 0q-3.65625 0 -5.953125 -2.25q-2.296875 -2.265625 -2.296875 -5.890625q0 -3.453125 2.28125 -5.765625q2.28125 -2.328125 5.71875 -2.328125q3.421875 0 5.578125 2.359375q2.15625 2.34375 2.15625 6.15625l0 0.890625l-11.484375 0q0.1875 1.484375 1.328125 2.546875q1.140625 1.046875 3.125 1.046875q0.953125 0 2.140625 -0.390625q1.1875 -0.40625 1.984375 -1.15625l1.78125 2.625q-1.140625 1.0625 -2.84375 1.609375q-1.6875 0.546875 -3.515625 0.546875zm3.546875 -9.578125q-0.09375 -1.53125 -1.15625 -2.46875q-1.046875 -0.953125 -2.640625 -0.953125q-1.609375 0 -2.640625 0.984375q-1.015625 0.96875 -1.171875 2.4375l7.609375 0zm5.821045 3.171875l0 -3.453125l7.6875 0l0 3.453125l-7.6875 0zm16.225006 6.40625q-2.015625 0 -3.859375 -0.640625q-1.828125 -0.640625 -3.046875 -1.765625l1.765625 -2.84375q0.921875 0.859375 2.453125 1.484375q1.546875 0.625 2.890625 0.625q2.59375 0 2.59375 -1.671875q0 -0.640625 -0.703125 -0.953125q-0.6875 -0.328125 -1.671875 -0.546875l-2.203125 -0.453125q-4.609375 -0.984375 -4.609375 -4.59375q0 -2.15625 1.765625 -3.515625q1.78125 -1.359375 4.5625 -1.359375q3.625 0 6.25 2.109375l-1.640625 2.796875q-0.703125 -0.75 -1.921875 -1.265625q-1.21875 -0.53125 -2.65625 -0.53125q-1.109375 0 -1.765625 0.453125q-0.65625 0.4375 -0.65625 1.078125q0 0.578125 0.671875 0.875q0.671875 0.28125 1.6875 0.5q1.03125 0.203125 2.203125 0.46875q1.1875 0.265625 2.203125 0.8125q1.03125 0.546875 1.703125 1.484375q0.671875 0.921875 0.671875 2.484375q0 2.234375 -1.828125 3.609375q-1.8125 1.359375 -4.859375 1.359375zm14.889069 0q-4.3906555 0 -4.3906555 -4.234375l0 -8.0625l-2.5625 0l0 -3.546875l2.5625 0l0 -4.234375l4.0937805 0l0 4.234375l3.140625 0l0 3.546875l-3.140625 0l0 6.984375q0 0.734375 0.359375 1.21875q0.375 0.46875 1.046875 0.46875q0.96875 0 1.421875 -0.453125l0.859375 3.078125q-1.0625 1.0 -3.390625 1.0zm12.800354 0q-3.59375 0 -5.875 -2.296875q-2.28125 -2.3125 -2.28125 -5.84375q0 -3.515625 2.28125 -5.796875q2.28125 -2.296875 5.875 -2.296875q3.578125 0 5.875 2.296875q2.3125 2.28125 2.3125 5.796875q0 3.5625 -2.3125 5.859375q-2.296875 2.28125 -5.875 2.28125zm0 -3.625q1.75 0 2.859375 -1.265625q1.109375 -1.265625 1.109375 -3.25q0 -1.90625 -1.109375 -3.1875q-1.109375 -1.28125 -2.859375 -1.28125q-1.703125 0 -2.828125 1.234375q-1.109375 1.21875 -1.109375 3.234375q0 2.046875 1.109375 3.28125q1.125 1.234375 2.828125 1.234375zm11.196167 3.234375l0 -15.453125l4.0625 0l0 2.109375q0.828125 -1.03125 2.15625 -1.765625q1.328125 -0.734375 2.78125 -0.734375l0 3.96875l-1.125 -0.09375q-1.09375 0 -2.203125 0.515625q-1.09375 0.515625 -1.609375 1.25l0 10.203125l-4.0625 0zm18.785645 0.390625q-3.65625 0 -5.953125 -2.25q-2.296875 -2.265625 -2.296875 -5.890625q0 -3.453125 2.28125 -5.765625q2.28125 -2.328125 5.71875 -2.328125q3.421875 0 5.578125 2.359375q2.15625 2.34375 2.15625 6.15625l0 0.890625l-11.484375 0q0.1875 1.484375 1.328125 2.546875q1.140625 1.046875 3.125 1.046875q0.953125 0 2.140625 -0.390625q1.1875 -0.40625 1.984375 -1.15625l1.78125 2.625q-1.140625 1.0625 -2.84375 1.609375q-1.6875 0.546875 -3.515625 0.546875zm3.546875 -9.578125q-0.09375 -1.53125 -1.15625 -2.46875q-1.046875 -0.953125 -2.640625 -0.953125q-1.609375 0 -2.640625 0.984375q-1.015625 0.96875 -1.171875 2.4375l7.609375 0z" fill-rule="nonzero"></path><path fill="#ffab40" d="m120.72179 124.031494l718.55115 0l0 67.81102l-718.55115 0z" fill-rule="evenodd"></path><path fill="#ffffff" d="m416.50534 169.65701l-1.3125 -3.609375l-9.140625 0l-1.34375 3.609375l-5.1875 0l8.25 -21.34375l5.703125 0l8.21875 21.34375l-5.1875 0zm-5.890625 -16.796875l-3.328125 9.1875l6.65625 0l-3.328125 -9.1875zm23.591187 16.796875l0 -1.984375q-1.921875 2.375 -4.765625 2.375q-3.078125 0 -4.96875 -2.203125q-1.875 -2.21875 -1.875 -5.90625q0 -3.640625 1.875 -5.875q1.890625 -2.25 4.96875 -2.25q2.90625 0 4.765625 2.375l0 -7.875l4.09375 0l0 21.34375l-4.09375 0zm-3.515625 -3.234375q1.015625 0 2.0 -0.484375q1.0 -0.5 1.515625 -1.265625l0 -5.484375q-0.515625 -0.765625 -1.515625 -1.25q-0.984375 -0.5 -2.0 -0.5q-1.734375 0 -2.828125 1.25q-1.078125 1.234375 -1.078125 3.25q0 1.953125 1.046875 3.21875q1.0625 1.265625 2.859375 1.265625zm22.26764 3.234375l0 -1.984375q-1.921875 2.375 -4.765625 2.375q-3.078125 0 -4.96875 -2.203125q-1.875 -2.21875 -1.875 -5.90625q0 -3.640625 1.875 -5.875q1.890625 -2.25 4.96875 -2.25q2.90625 0 4.765625 2.375l0 -7.875l4.09375 0l0 21.34375l-4.09375 0zm-3.515625 -3.234375q1.015625 0 2.0 -0.484375q1.0 -0.5 1.515625 -1.265625l0 -5.484375q-0.515625 -0.765625 -1.515625 -1.25q-0.984375 -0.5 -2.0 -0.5q-1.734375 0 -2.828125 1.25q-1.078125 1.234375 -1.078125 3.25q0 1.953125 1.046875 3.21875q1.0625 1.265625 2.859375 1.265625zm25.022217 3.625q-4.390625 0 -4.390625 -4.234375l0 -8.0625l-2.5625 0l0 -3.546875l2.5625 0l0 -4.234375l4.09375 0l0 4.234375l3.140625 0l0 3.546875l-3.140625 0l0 6.984375q0 0.734375 0.359375 1.21875q0.375 0.46875 1.046875 0.46875q0.96875 0 1.421875 -0.453125l0.859375 3.078125q-1.0625 1.0 -3.390625 1.0zm12.8003845 0q-3.59375 0 -5.875 -2.296875q-2.28125 -2.3125 -2.28125 -5.84375q0 -3.515625 2.28125 -5.796875q2.28125 -2.296875 5.875 -2.296875q3.578125 0 5.875 2.296875q2.3125 2.28125 2.3125 5.796875q0 3.5625 -2.3125 5.859375q-2.296875 2.28125 -5.875 2.28125zm0 -3.625q1.75 0 2.859375 -1.265625q1.109375 -1.265625 1.109375 -3.25q0 -1.90625 -1.109375 -3.1875q-1.109375 -1.28125 -2.859375 -1.28125q-1.703125 0 -2.828125 1.234375q-1.109375 1.21875 -1.109375 3.234375q0 2.046875 1.109375 3.28125q1.125 1.234375 2.828125 1.234375zm26.591309 3.625q-3.65625 0 -5.921875 -2.296875q-2.265625 -2.3125 -2.265625 -5.84375q0 -3.484375 2.265625 -5.78125q2.265625 -2.3125 5.921875 -2.3125q2.359375 0 3.84375 0.875q1.5 0.859375 2.265625 1.90625l-2.65625 2.5q-1.125 -1.65625 -3.265625 -1.65625q-1.859375 0 -3.03125 1.234375q-1.15625 1.21875 -1.15625 3.234375q0 2.015625 1.15625 3.265625q1.171875 1.25 3.03125 1.25q2.078125 0 3.265625 -1.65625l2.65625 2.453125q-0.765625 1.09375 -2.265625 1.96875q-1.484375 0.859375 -3.84375 0.859375zm18.046204 -0.390625l0 -1.59375q-1.703125 1.984375 -4.890625 1.984375q-2.25 0 -3.8125 -1.421875q-1.5625 -1.4375 -1.5625 -3.703125q0 -2.28125 1.484375 -3.640625q1.484375 -1.359375 3.890625 -1.359375q3.328125 0 4.890625 1.890625l0 -2.078125q0 -1.1875 -0.9375 -1.890625q-0.921875 -0.703125 -2.453125 -0.703125q-2.5625 0 -4.515625 1.828125l-1.53125 -2.71875q2.8125 -2.4375 6.75 -2.4375q3.265625 0 5.0 1.53125q1.75 1.515625 1.75 4.328125l0 9.984375l-4.0625 0zm-3.265625 -2.375q2.234375 0 3.265625 -1.34375l0 -1.90625q-1.03125 -1.34375 -3.265625 -1.34375q-1.21875 0 -2.0625 0.609375q-0.84375 0.59375 -0.84375 1.71875q0 1.09375 0.84375 1.6875q0.84375 0.578125 2.0625 0.578125zm11.360413 2.375l0 -15.453125l4.0625 0l0 2.109375q0.828125 -1.03125 2.15625 -1.765625q1.328125 -0.734375 2.78125 -0.734375l0 3.96875l-1.125 -0.09375q-1.09375 0 -2.203125 0.515625q-1.09375 0.515625 -1.609375 1.25l0 10.203125l-4.0625 0zm16.70752 0.390625q-4.390625 0 -4.390625 -4.234375l0 -8.0625l-2.5625 0l0 -3.546875l2.5625 0l0 -4.234375l4.09375 0l0 4.234375l3.140625 0l0 3.546875l-3.140625 0l0 6.984375q0 0.734375 0.359375 1.21875q0.375 0.46875 1.046875 0.46875q0.96875 0 1.421875 -0.453125l0.859375 3.078125q-1.0625 1.0 -3.390625 1.0z" fill-rule="nonzero"></path><path fill="#ffab40" d="m157.55118 207.18898l644.9133 0l0 67.81102l-644.9133 0z" fill-rule="evenodd"></path><path fill="#ffffff" d="m422.94086 253.20511q-4.96875 0 -8.171875 -3.15625q-3.1875 -3.15625 -3.1875 -7.890625q0 -3.140625 1.484375 -5.6875q1.484375 -2.5625 4.109375 -3.953125q2.625 -1.40625 5.765625 -1.40625q5.890625 0 8.921875 5.21875l-3.90625 1.921875q-0.671875 -1.3125 -2.015625 -2.203125q-1.34375 -0.890625 -3.0 -0.890625q-2.921875 0 -4.8125 2.0q-1.875 2.0 -1.875 5.0q0 3.109375 1.90625 5.0625q1.921875 1.953125 4.78125 1.953125q1.65625 0 3.0 -0.875q1.34375 -0.890625 2.015625 -2.234375l3.90625 1.890625q-3.03125 5.25 -8.921875 5.25zm22.01529 -0.390625l0 -9.40625q0 -2.8125 -2.890625 -2.8125q-2.109375 0 -3.515625 1.8125l0 10.40625l-4.0625 0l0 -21.34375l4.0625 0l0 7.90625q0.734375 -0.90625 2.125 -1.65625q1.390625 -0.75 3.3125 -0.75q2.5625 0 3.796875 1.296875q1.234375 1.296875 1.234375 3.578125l0 10.96875l-4.0625 0zm15.356934 0.390625q-3.65625 0 -5.953125 -2.25q-2.296875 -2.265625 -2.296875 -5.890625q0 -3.453125 2.28125 -5.765625q2.28125 -2.328125 5.71875 -2.328125q3.421875 0 5.578125 2.359375q2.15625 2.34375 2.15625 6.15625l0 0.890625l-11.484375 0q0.1875 1.484375 1.328125 2.546875q1.140625 1.046875 3.125 1.046875q0.953125 0 2.140625 -0.390625q1.1875 -0.40625 1.984375 -1.15625l1.78125 2.625q-1.140625 1.0625 -2.84375 1.609375q-1.6875 0.546875 -3.515625 0.546875zm3.546875 -9.578125q-0.09375 -1.53125 -1.15625 -2.46875q-1.046875 -0.953125 -2.640625 -0.953125q-1.609375 0 -2.640625 0.984375q-1.015625 0.96875 -1.171875 2.4375l7.609375 0zm14.086639 9.578125q-3.65625 0 -5.921875 -2.296875q-2.265625 -2.3125 -2.265625 -5.84375q0 -3.484375 2.265625 -5.78125q2.265625 -2.3125 5.921875 -2.3125q2.359375 0 3.84375 0.875q1.5 0.859375 2.265625 1.90625l-2.65625 2.5q-1.125 -1.65625 -3.265625 -1.65625q-1.859375 0 -3.03125 1.234375q-1.15625 1.21875 -1.15625 3.234375q0 2.015625 1.15625 3.265625q1.171875 1.25 3.03125 1.25q2.078125 0 3.265625 -1.65625l2.65625 2.453125q-0.765625 1.09375 -2.265625 1.96875q-1.484375 0.859375 -3.84375 0.859375zm18.780548 -0.390625l-4.09375 -5.953125l-1.859375 1.984375l0 3.96875l-4.0625 0l0 -21.34375l4.0625 0l0 12.765625l5.859375 -6.875l4.984375 0l-6.109375 7.0l6.3125 8.453125l-5.09375 0zm14.276276 0.390625q-3.59375 0 -5.875 -2.296875q-2.28125 -2.3125 -2.28125 -5.84375q0 -3.515625 2.28125 -5.796875q2.28125 -2.296875 5.875 -2.296875q3.578125 0 5.875 2.296875q2.3125 2.28125 2.3125 5.796875q0 3.5625 -2.3125 5.859375q-2.296875 2.28125 -5.875 2.28125zm0 -3.625q1.75 0 2.859375 -1.265625q1.109375 -1.265625 1.109375 -3.25q0 -1.90625 -1.109375 -3.1875q-1.109375 -1.28125 -2.859375 -1.28125q-1.703125 0 -2.828125 1.234375q-1.109375 1.21875 -1.109375 3.234375q0 2.046875 1.109375 3.28125q1.125 1.234375 2.828125 1.234375zm21.633667 3.234375l0 -1.953125q-2.078125 2.34375 -5.4375 2.34375q-2.5625 0 -3.78125 -1.296875q-1.21875 -1.296875 -1.21875 -3.578125l0 -10.96875l4.0625 0l0 9.375q0 2.84375 2.84375 2.84375q2.09375 0 3.53125 -1.75l0 -10.46875l4.0625 0l0 15.453125l-4.0625 0zm13.278076 0.390625q-4.390625 0 -4.390625 -4.234375l0 -8.0625l-2.5625 0l0 -3.546875l2.5625 0l0 -4.234375l4.09375 0l0 4.234375l3.140625 0l0 3.546875l-3.140625 0l0 6.984375q0 0.734375 0.359375 1.21875q0.375 0.46875 1.046875 0.46875q0.96875 0 1.421875 -0.453125l0.859375 3.078125q-1.0625 1.0 -3.390625 1.0z" fill-rule="nonzero"></path><path fill="#ffab40" d="m210.23637 285.9449l539.5275 0l0 67.811035l-539.5275 0z" fill-rule="evenodd"></path><path fill="#ffffff" d="m425.44714 331.96103q-5.703125 0 -9.03125 -3.40625l2.46875 -3.453125q1.109375 1.1875 2.84375 2.046875q1.734375 0.84375 3.9375 0.84375q1.890625 0 2.796875 -0.71875q0.90625 -0.734375 0.90625 -1.65625q0 -0.953125 -1.0625 -1.5q-1.046875 -0.546875 -5.078125 -1.5q-6.140625 -1.484375 -6.140625 -6.21875q0 -2.75 2.21875 -4.609375q2.234375 -1.875 5.875 -1.875q5.09375 0 8.328125 2.96875l-2.53125 3.328125q-2.53125 -2.34375 -6.203125 -2.34375q-1.484375 0 -2.265625 0.59375q-0.78125 0.59375 -0.78125 1.5625q0 0.828125 0.90625 1.296875q0.921875 0.453125 2.296875 0.78125l2.9375 0.734375q6.109375 1.5625 6.109375 6.265625q0 3.171875 -2.265625 5.015625q-2.265625 1.84375 -6.265625 1.84375zm21.981293 -0.390625l0 -9.40625q0 -2.8125 -2.890625 -2.8125q-2.109375 0 -3.515625 1.8125l0 10.40625l-4.0625 0l0 -21.34375l4.0625 0l0 7.90625q0.734375 -0.90625 2.125 -1.65625q1.390625 -0.75 3.3125 -0.75q2.5625 0 3.796875 1.296875q1.234375 1.296875 1.234375 3.578125l0 10.96875l-4.0625 0zm10.106934 -17.125q-0.984375 0 -1.71875 -0.703125q-0.71875 -0.703125 -0.71875 -1.71875q0 -1.03125 0.71875 -1.71875q0.734375 -0.6875 1.71875 -0.6875q1.03125 0 1.734375 0.6875q0.703125 0.6875 0.703125 1.71875q0 1.015625 -0.703125 1.71875q-0.703125 0.703125 -1.734375 0.703125zm-2.015625 17.125l0 -15.453125l4.0625 0l0 15.453125l-4.0625 0zm16.924133 0.390625q-2.96875 0 -4.765625 -2.375l0 7.875l-4.0625 0l0 -21.34375l4.0625 0l0 1.953125q1.859375 -2.34375 4.765625 -2.34375q3.078125 0 4.96875 2.171875q1.890625 2.15625 1.890625 5.921875q0 3.71875 -1.875 5.9375q-1.875 2.203125 -4.984375 2.203125zm-1.28125 -3.625q1.765625 0 2.828125 -1.25q1.078125 -1.25 1.078125 -3.265625q0 -2.015625 -1.078125 -3.234375q-1.0625 -1.234375 -2.828125 -1.234375q-0.984375 0 -1.984375 0.515625q-0.984375 0.5 -1.5 1.234375l0 5.484375q0.515625 0.734375 1.5 1.25q1.0 0.5 1.984375 0.5zm19.937286 3.625q-2.96875 0 -4.765625 -2.375l0 7.875l-4.0625 0l0 -21.34375l4.0625 0l0 1.953125q1.859375 -2.34375 4.765625 -2.34375q3.078125 0 4.96875 2.171875q1.890625 2.15625 1.890625 5.921875q0 3.71875 -1.875 5.9375q-1.875 2.203125 -4.984375 2.203125zm-1.28125 -3.625q1.765625 0 2.828125 -1.25q1.078125 -1.25 1.078125 -3.265625q0 -2.015625 -1.078125 -3.234375q-1.0625 -1.234375 -2.828125 -1.234375q-0.984375 0 -1.984375 0.515625q-0.984375 0.5 -1.5 1.234375l0 5.484375q0.515625 0.734375 1.5 1.25q1.0 0.5 1.984375 0.5zm13.124786 -13.890625q-0.984375 0 -1.71875 -0.703125q-0.71875 -0.703125 -0.71875 -1.71875q0 -1.03125 0.71875 -1.71875q0.734375 -0.6875 1.71875 -0.6875q1.03125 0 1.734375 0.6875q0.703125 0.6875 0.703125 1.71875q0 1.015625 -0.703125 1.71875q-0.703125 0.703125 -1.734375 0.703125zm-2.015625 17.125l0 -15.453125l4.0625 0l0 15.453125l-4.0625 0zm18.533539 0l0 -9.34375q0 -2.875 -2.859375 -2.875q-2.203125 0 -3.515625 1.8125l0 10.40625l-4.0625305 0l0 -15.453125l4.0625305 0l0 2.015625q0.734375 -0.90625 2.109375 -1.65625q1.375 -0.75 3.296875 -0.75q2.5625 0 3.796875 1.328125q1.234375 1.328125 1.234375 3.609375l0 10.90625l-4.0625 0zm14.434265 6.265625q-2.015625 0 -3.609375 -0.515625q-1.578125 -0.5 -3.046875 -1.78125l1.8125 -2.9375q1.734375 1.90625 4.84375 1.90625q2.015625 0 3.125 -1.03125q1.125 -1.015625 1.125 -2.859375l0 -1.578125q-1.953125 2.4375 -4.765625 2.4375q-3.109375 0 -4.96875 -2.125q-1.84375 -2.140625 -1.84375 -5.75q0 -3.578125 1.828125 -5.71875q1.84375 -2.15625 4.984375 -2.15625q2.90625 0 4.765625 2.375l0 -1.984375l4.09375 0l0 14.390625q0 3.53125 -2.171875 5.421875q-2.171875 1.90625 -6.171875 1.90625zm0.765625 -9.984375q1.015625 0 1.984375 -0.5q0.984375 -0.515625 1.5 -1.25l0 -5.0q-0.515625 -0.765625 -1.5 -1.25q-0.96875 -0.5 -1.984375 -0.5q-1.734375 0 -2.828125 1.125q-1.078125 1.109375 -1.078125 3.125q0 2.015625 1.078125 3.140625q1.09375 1.109375 2.828125 1.109375z" fill-rule="nonzero"></path><path fill="#ffab40" d="m235.93716 366.05643l488.126 0l0 67.811035l-488.126 0z" fill-rule="evenodd"></path><path fill="#ffffff" d="m436.68542 411.68195l0 -21.34375l11.234375 0q2.78125 0 4.453125 1.5q1.6875 1.5 1.6875 3.9375q0 1.921875 -1.046875 3.25q-1.03125 1.328125 -2.625 1.640625q1.65625 0.265625 2.875 1.734375q1.21875 1.46875 1.21875 3.515625q0 2.5625 -1.671875 4.171875q-1.65625 1.59375 -4.53125 1.59375l-11.59375 0zm10.25 -12.796875q1.140625 0 1.8125 -0.640625q0.671875 -0.640625 0.671875 -1.671875q0 -1.015625 -0.671875 -1.671875q-0.671875 -0.65625 -1.8125 -0.65625l-5.703125 0l0 4.640625l5.703125 0zm0.15625 8.859375q1.3125 0 2.03125 -0.65625q0.71875 -0.65625 0.71875 -1.8125q0 -1.015625 -0.703125 -1.75q-0.703125 -0.734375 -2.046875 -0.734375l-5.859375 0l0 4.953125l5.859375 0zm12.731689 -13.1875q-0.984375 0 -1.71875 -0.703125q-0.71875 -0.703125 -0.71875 -1.71875q0 -1.03125 0.71875 -1.71875q0.734375 -0.6875 1.71875 -0.6875q1.03125 0 1.734375 0.6875q0.703125 0.6875 0.703125 1.71875q0 1.015625 -0.703125 1.71875q-0.703125 0.703125 -1.734375 0.703125zm-2.015625 17.125l0 -15.453125l4.0625 0l0 15.453125l-4.0625 0zm8.096008 0l0 -21.34375l4.0625 0l0 21.34375l-4.0625 0zm8.096039 0l0 -21.34375l4.0625 0l0 21.34375l-4.0625 0zm10.111633 -17.125q-0.984375 0 -1.71875 -0.703125q-0.71875 -0.703125 -0.71875 -1.71875q0 -1.03125 0.71875 -1.71875q0.734375 -0.6875 1.71875 -0.6875q1.03125 0 1.734375 0.6875q0.703125 0.6875 0.703125 1.71875q0 1.015625 -0.703125 1.71875q-0.703125 0.703125 -1.734375 0.703125zm-2.015625 17.125l0 -15.453125l4.0625 0l0 15.453125l-4.0625 0zm18.533508 0l0 -9.34375q0 -2.875 -2.859375 -2.875q-2.203125 0 -3.515625 1.8125l0 10.40625l-4.0624695 0l0 -15.453125l4.0624695 0l0 2.015625q0.734375 -0.90625 2.109375 -1.65625q1.375 -0.75 3.296875 -0.75q2.5625 0 3.796875 1.328125q1.234375 1.328125 1.234375 3.609375l0 10.90625l-4.0625 0zm14.434296 6.265625q-2.015625 0 -3.609375 -0.515625q-1.578125 -0.5 -3.046875 -1.78125l1.8125 -2.9375q1.734375 1.90625 4.84375 1.90625q2.015625 0 3.125 -1.03125q1.125 -1.015625 1.125 -2.859375l0 -1.578125q-1.953125 2.4375 -4.765625 2.4375q-3.109375 0 -4.96875 -2.125q-1.84375 -2.140625 -1.84375 -5.75q0 -3.578125 1.828125 -5.71875q1.84375 -2.15625 4.984375 -2.15625q2.90625 0 4.765625 2.375l0 -1.984375l4.09375 0l0 14.390625q0 3.53125 -2.171875 5.421875q-2.171875 1.90625 -6.171875 1.90625zm0.765625 -9.984375q1.015625 0 1.984375 -0.5q0.984375 -0.515625 1.5 -1.25l0 -5.0q-0.515625 -0.765625 -1.5 -1.25q-0.96875 -0.5 -1.984375 -0.5q-1.734375 0 -2.828125 1.125q-1.078125 1.109375 -1.078125 3.125q0 2.015625 1.078125 3.140625q1.09375 1.109375 2.828125 1.109375z" fill-rule="nonzero"></path><path fill="#ffab40" d="m266.63116 446.1706l426.74017 0l0 67.811035l-426.74017 0z" fill-rule="evenodd"></path><path fill="#ffffff" d="m434.34225 492.18674q-4.96875 0 -8.171875 -3.15625q-3.1875 -3.15625 -3.1875 -7.890625q0 -3.140625 1.484375 -5.6875q1.484375 -2.5625 4.109375 -3.953125q2.625 -1.40625 5.765625 -1.40625q5.890625 0 8.921875 5.21875l-3.90625 1.921875q-0.671875 -1.3125 -2.015625 -2.203125q-1.34375 -0.890625 -3.0 -0.890625q-2.921875 0 -4.8125 2.0q-1.875 2.0 -1.875 5.0q0 3.109375 1.90625 5.0625q1.921875 1.953125 4.78125 1.953125q1.65625 0 3.0 -0.875q1.34375 -0.890625 2.015625 -2.234375l3.90625 1.890625q-3.03125 5.25 -8.921875 5.25zm18.718414 0q-3.59375 0 -5.875 -2.296875q-2.28125 -2.3125 -2.28125 -5.84375q0 -3.515625 2.28125 -5.796875q2.28125 -2.296875 5.875 -2.296875q3.578125 0 5.875 2.296875q2.3125 2.28125 2.3125 5.796875q0 3.5625 -2.3125 5.859375q-2.296875 2.28125 -5.875 2.28125zm0 -3.625q1.75 0 2.859375 -1.265625q1.109375 -1.265625 1.109375 -3.25q0 -1.90625 -1.109375 -3.1875q-1.109375 -1.28125 -2.859375 -1.28125q-1.703125 0 -2.828125 1.234375q-1.109375 1.21875 -1.109375 3.234375q0 2.046875 1.109375 3.28125q1.125 1.234375 2.828125 1.234375zm21.633667 3.234375l0 -9.34375q0 -2.875 -2.859375 -2.875q-2.203125 0 -3.515625 1.8125l0 10.40625l-4.0625 0l0 -15.453125l4.0625 0l0 2.015625q0.734375 -0.90625 2.109375 -1.65625q1.375 -0.75 3.296875 -0.75q2.5625 0 3.796875 1.328125q1.234375 1.328125 1.234375 3.609375l0 10.90625l-4.0625 0zm8.98114 0l0 -11.90625l-2.546875 0l0 -3.546875l2.546875 0l0 -0.828125q0 -2.5 1.4375 -3.9375q1.453125 -1.4375 3.78125 -1.4375q2.71875 0 4.03125 1.4375l-1.53125 2.390625q-0.640625 -0.640625 -1.703125 -0.640625q-0.828125 0 -1.375 0.546875q-0.53125 0.546875 -0.53125 1.640625l0 0.828125l3.125 0l0 3.546875l-3.125 0l0 11.90625l-4.109375 0zm11.58902 -17.125q-0.984375 0 -1.71875 -0.703125q-0.71875 -0.703125 -0.71875 -1.71875q0 -1.03125 0.71875 -1.71875q0.734375 -0.6875 1.71875 -0.6875q1.03125 0 1.734375 0.6875q0.703125 0.6875 0.703125 1.71875q0 1.015625 -0.703125 1.71875q-0.703125 0.703125 -1.734375 0.703125zm-2.015625 17.125l0 -15.453125l4.0625 0l0 15.453125l-4.0625 0zm8.096039 0l0 -15.453125l4.0625 0l0 2.109375q0.828125 -1.03125 2.15625 -1.765625q1.328125 -0.734375 2.78125 -0.734375l0 3.96875l-1.125 -0.09375q-1.09375 0 -2.203125 0.515625q-1.09375 0.515625 -1.609375 1.25l0 10.203125l-4.0625 0zm30.691895 0l0 -9.765625q0 -2.453125 -2.3125 -2.453125q-1.078125 0 -1.921875 0.578125q-0.828125 0.5625 -1.265625 1.203125l0 10.4375l-4.109375 0l0 -9.765625q0 -2.453125 -2.296875 -2.453125q-1.0625 0 -1.90625 0.59375q-0.84375 0.578125 -1.296875 1.21875l0 10.40625l-4.0625 0l0 -15.453125l4.0625 0l0 2.015625q0.546875 -0.859375 2.03125 -1.625q1.484375 -0.78125 3.03125 -0.78125q3.359375 0 4.28125 2.8125q0.734375 -1.171875 2.203125 -1.984375q1.484375 -0.828125 3.109375 -0.828125q4.546875 0 4.546875 4.671875l0 11.171875l-4.09375 0z" fill-rule="nonzero"></path><path fill="#595959" d="m733.9252 124.031685l105.35431 0l0 67.81103l-105.35431 0z" fill-rule="evenodd"></path><path fill="#595959" d="m687.97363 207.18898l114.48822 0l0 67.81102l-114.48822 0z" fill-rule="evenodd"></path><path fill="#595959" d="m628.83466 285.10236l120.91339 0l0 67.811035l-120.91339 0z" fill-rule="evenodd"></path><path fill="#595959" d="m594.33856 365.6378l129.7323 0l0 67.811035l-129.7323 0z" fill-rule="evenodd"></path><path fill="#595959" d="m553.9265 446.1706l139.43304 0l0 67.811035l-139.43304 0z" fill-rule="evenodd"></path><path fill="#595959" d="m812.16296 40.874016l86.74017 0l0 67.81102l-86.74017 0z" fill-rule="evenodd"></path></g></svg>

