{
"cities":
[
{"num": 1, "name": "New York", "state": "New York", "population": 8550.405, "growth": 6.6 },
{"num": 2, "name": "Los Angeles", "state": "California", "population": 3971.883, "growth": 7.2 },
{"num": 3, "name": "Chicago", "state": "Illinois", "population": 2720.546, "growth": -6.0 },
{"num": 4, "name": "Houston", "state": "Texas", "population": 2296.224, "growth": 16.0 },
{"num": 5, "name": "Philadelphia", "state": "Pennsylvania", "population": 1567.442, "growth": 3.5 },
{"num": 6, "name": "Phoenix", "state": "Arizona", "population": 1563.025, "growth": 17.7 },
{"num": 7, "name": "San Antonio", "state": "Texas", "population": 1469.845, "growth": 26.2 },
{"num": 8, "name": "San Diego", "state": "California", "population": 1394.928, "growth": 13.7 },
{"num": 9, "name": "Dallas", "state": "Texas", "population": 1300.092, "growth": 9.1 },
{"num": 10, "name": "San Jose", "state": "California", "population": 1026.908, "growth": 13.6 },
{"num": 11, "name": "Austin", "state": "Texas", "population": 931.830, "growth": 38.6 },
{"num": 12, "name": "Jacksonville", "state": "Florida", "population": 868.031, "growth": 17.8 },
{"num": 13, "name": "San Francisco", "state": "California", "population": 864.816, "growth": 11.2 },
{"num": 14, "name": "Indianapolis", "state": "Indiana", "population": 853.173, "growth": 9.0 },
{"num": 15, "name": "Columbus", "state": "Ohio", "population": 850.106, "growth": 18.7 },
{"num": 16, "name": "Fort Worth", "state": "Texas", "population": 833.319, "growth": 52.6 },
{"num": 17, "name": "Charlotte", "state": "North Carolina", "population": 827.097, "growth": 45.1 },
{"num": 18, "name": "Seattle", "state": "Washington", "population": 684.451, "growth": 21.3 },
{"num": 19, "name": "Denver", "state": "Colorado", "population": 682.545, "growth": 22.7 },
{"num": 20, "name": "El Paso", "state": "Texas", "population": 681.124, "growth": 20.5 },
{"num": 21, "name": "Detroit", "state": "Michigan", "population": 677.116, "growth": -28.3 },
{"num": 22, "name": "Washington", "state": "District of Columbia", "population": 672.228, "growth": 17.5 },
{"num": 23, "name": "Boston", "state": "Massachusetts", "population": 667.137, "growth": 12.9 },
{"num": 24, "name": "Memphis", "state": "Tennessee", "population": 655.770, "growth": -4.9 },
{"num": 25, "name": "Nashville-Davidson", "state": "Tennessee", "population": 654.610, "growth": 19.9 },
{"num": 26, "name": "Portland", "state": "Oregon", "population": 632.309, "growth": 19.3 },
{"num": 27, "name": "Oklahoma City", "state": "Oklahoma", "population": 631.346, "growth": 24.3 },
{"num": 28, "name": "Las Vegas", "state": "Nevada", "population": 623.747, "growth": 28.7 },
{"num": 29, "name": "Baltimore", "state": "Maryland", "population": 621.849, "growth": -4.1 },
{"num": 30, "name": "Louisville/Jefferson County", "state": "Kentucky", "population": 615.366, "growth": 11.0 },
{"num": 31, "name": "Milwaukee", "state": "Wisconsin", "population": 600.155, "growth": 0.5 },
{"num": 32, "name": "Albuquerque", "state": "New Mexico", "population": 559.121, "growth": 24.0 },
{"num": 33, "name": "Tucson", "state": "Arizona", "population": 531.641, "growth": 8.6 },
{"num": 34, "name": "Fresno", "state": "California", "population": 520.052, "growth": 20.7 },
{"num": 35, "name": "Sacramento", "state": "California", "population": 490.712, "growth": 19.9 },
{"num": 36, "name": "Kansas City", "state": "Missouri", "population": 475.378, "growth": 7.4 },
{"num": 37, "name": "Long Beach", "state": "California", "population": 474.140, "growth": 2.5 },
{"num": 38, "name": "Mesa", "state": "Arizona", "population": 471.825, "growth": 17.1 },
{"num": 39, "name": "Atlanta", "state": "Georgia", "population": 463.878, "growth": 10.1 },
{"num": 40, "name": "Colorado Springs", "state": "Colorado", "population": 456.568, "growth": 26.0 },
{"num": 41, "name": "Virginia Beach", "state": "Virginia", "population": 452.745, "growth": 6.1 },
{"num": 42, "name": "Raleigh", "state": "North Carolina", "population": 451.066, "growth": 55.4 },
{"num": 43, "name": "Omaha", "state": "Nebraska", "population": 443.885, "growth": 8.2 },
{"num": 44, "name": "Miami", "state": "Florida", "population": 441.003, "growth": 21.4 },
{"num": 45, "name": "Oakland", "state": "California", "population": 419.267, "growth": 4.6 },
{"num": 46, "name": "Minneapolis", "state": "Minnesota", "population": 410.939, "growth": 7.4 },
{"num": 47, "name": "Tulsa", "state": "Oklahoma", "population": 403.505, "growth": 2.7 },
{"num": 48, "name": "Wichita", "state": "Kansas", "population": 389.965, "growth": 10.6 },
{"num": 49, "name": "New Orleans", "state": "Louisiana", "population": 389.617, "growth": -19.4 },
{"num": 50, "name": "Arlington", "state": "Texas", "population": 388.125, "growth": 15.9 },
{"num": 51, "name": "Cleveland", "state": "Ohio", "population": 388.072, "growth": -18.5 },
{"num": 52, "name": "Bakersfield", "state": "California", "population": 373.640, "growth": 52.5 },
{"num": 53, "name": "Tampa", "state": "Florida", "population": 369.075, "growth": 21.3 },
{"num": 54, "name": "Aurora", "state": "Colorado", "population": 359.407, "growth": 29.3 },
{"num": 55, "name": "Honolulu", "state": "Hawaii", "population": 352.769, "growth": -4.9 },
{"num": 56, "name": "Anaheim", "state": "California", "population": 350.742, "growth": 6.5 },
{"num": 57, "name": "Santa Ana", "state": "California", "population": 335.400, "growth": -0.9 },
{"num": 58, "name": "Corpus Christi", "state": "Texas", "population": 324.074, "growth": 16.8 },
{"num": 59, "name": "Riverside", "state": "California", "population": 322.424, "growth": 24.7 },
{"num": 60, "name": "St. Louis", "state": "Missouri", "population": 315.685, "growth": -8.9 },
{"num": 61, "name": "Lexington-Fayette", "state": "Kentucky", "population": 314.488, "growth": 20.4 },
{"num": 62, "name": "Stockton", "state": "California", "population": 305.658, "growth": 24.9 },
{"num": 63, "name": "Pittsburgh", "state": "Pennsylvania", "population": 304.391, "growth": -8.7 },
{"num": 64, "name": "St. Paul", "state": "Minnesota", "population": 300.851, "growth": 4.9 },
{"num": 65, "name": "Anchorage", "state": "Alaska", "population": 298.695, "growth": 14.6 },
{"num": 66, "name": "Cincinnati", "state": "Ohio", "population": 298.550, "growth": -9.8 },
{"num": 67, "name": "Henderson", "state": "Nevada", "population": 285.667, "growth": 59.3 },
{"num": 68, "name": "Greensboro", "state": "North Carolina", "population": 285.342, "growth": 24.8 },
{"num": 69, "name": "Plano", "state": "Texas", "population": 283.558, "growth": 26.4 },
{"num": 70, "name": "Newark", "state": "New Jersey", "population": 281.944, "growth": 3.4 },
{"num": 71, "name": "Toledo", "state": "Ohio", "population": 279.789, "growth": -10.8 },
{"num": 72, "name": "Lincoln", "state": "Nebraska", "population": 277.348, "growth": 21.8 },
{"num": 73, "name": "Orlando", "state": "Florida", "population": 270.934, "growth": 39.1 },
{"num": 74, "name": "Chula Vista", "state": "California", "population": 265.757, "growth": 51.3 },
{"num": 75, "name": "Jersey City", "state": "New Jersey", "population": 264.290, "growth": 10.1 },
{"num": 76, "name": "Chandler", "state": "Arizona", "population": 260.828, "growth": 45.2 },
{"num": 77, "name": "Fort Wayne", "state": "Indiana", "population": 260.326, "growth": 2.5 },
{"num": 78, "name": "Buffalo", "state": "New York", "population": 258.071, "growth": -11.6 },
{"num": 79, "name": "Durham", "state": "North Carolina", "population": 257.636, "growth": 36.4 },
{"num": 80, "name": "St. Petersburg", "state": "Florida", "population": 257.083, "growth": 3.3 },
{"num": 81, "name": "Irvine", "state": "California", "population": 256.927, "growth": 75.1 },
{"num": 82, "name": "Laredo", "state": "Texas", "population": 255.473, "growth": 42.3 },
{"num": 83, "name": "Lubbock", "state": "Texas", "population": 249.042, "growth": 24.3 },
{"num": 84, "name": "Madison", "state": "Wisconsin", "population": 248.951, "growth": 18.5 },
{"num": 85, "name": "Gilbert", "state": "Arizona", "population": 247.542, "growth": 111.0 },
{"num": 86, "name": "Norfolk", "state": "Virginia", "population": 246.393, "growth": 5.1 },
{"num": 87, "name": "Reno", "state": "Nevada", "population": 241.445, "growth": 31.2 },
{"num": 88, "name": "Winston-Salem", "state": "North Carolina", "population": 241.218, "growth": 19.2 },
{"num": 89, "name": "Glendale", "state": "Arizona", "population": 240.126, "growth": 8.2 },
{"num": 90, "name": "Hialeah", "state": "Florida", "population": 237.069, "growth": 4.8 },
{"num": 91, "name": "Garland", "state": "Texas", "population": 236.897, "growth": 9.6 },
{"num": 92, "name": "Scottsdale", "state": "Arizona", "population": 236.839, "growth": 15.9 },
{"num": 93, "name": "Irving", "state": "Texas", "population": 236.607, "growth": 23.2 },
{"num": 94, "name": "Chesapeake", "state": "Virginia", "population": 235.429, "growth": 17.5 },
{"num": 95, "name": "North Las Vegas", "state": "Nevada", "population": 234.807, "growth": 99.0 },
{"num": 96, "name": "Fremont", "state": "California", "population": 232.206, "growth": 13.6 },
{"num": 97, "name": "Baton Rouge", "state": "Louisiana", "population": 228.590, "growth": 0.1 },
{"num": 98, "name": "Richmond", "state": "Virginia", "population": 220.289, "growth": 11.4 },
{"num": 99, "name": "Boise City", "state": "Idaho", "population": 218.281, "growth": 11.6 },
{"num": 100, "name": "San Bernardino", "state": "California", "population": 216.108, "growth": 14.3 },
{"num": 101, "name": "Spokane", "state": "Washington", "population": 213.272, "growth": 8.3 },
{"num": 102, "name": "Birmingham", "state": "Alabama", "population": 212.461, "growth": -12.2 },
{"num": 103, "name": "Modesto", "state": "California", "population": 211.266, "growth": 11.0 },
{"num": 104, "name": "Des Moines", "state": "Iowa", "population": 210.330, "growth": 5.3 },
{"num": 105, "name": "Rochester", "state": "New York", "population": 209.802, "growth": -4.4 },
{"num": 106, "name": "Tacoma", "state": "Washington", "population": 207.948, "growth": 7.2 },
{"num": 107, "name": "Fontana", "state": "California", "population": 207.460, "growth": 41.3 },
{"num": 108, "name": "Oxnard", "state": "California", "population": 207.254, "growth": 20.7 },
{"num": 109, "name": "Moreno Valley", "state": "California", "population": 204.198, "growth": 42.5 },
{"num": 110, "name": "Fayetteville", "state": "North Carolina", "population": 201.963, "growth": 1.2 },
{"num": 111, "name": "Huntington Beach", "state": "California", "population": 201.899, "growth": 6.2 },
{"num": 112, "name": "Yonkers", "state": "New York", "population": 201.116, "growth": 2.4 },
{"num": 113, "name": "Glendale", "state": "California", "population": 201.020, "growth": 2.9 },
{"num": 114, "name": "Aurora", "state": "Illinois", "population": 200.661, "growth": 38.8 },
{"num": 115, "name": "Montgomery", "state": "Alabama", "population": 200.602, "growth": -0.5 },
{"num": 116, "name": "Columbus", "state": "Georgia", "population": 200.579, "growth": 7.5 },
{"num": 117, "name": "Amarillo", "state": "Texas", "population": 198.645, "growth": 14.1 },
{"num": 118, "name": "Little Rock", "state": "Arkansas", "population": 197.992, "growth": 7.9 },
{"num": 119, "name": "Akron", "state": "Ohio", "population": 197.542, "growth": -8.9 },
{"num": 120, "name": "Shreveport", "state": "Louisiana", "population": 197.204, "growth": -1.6 },
{"num": 121, "name": "Augusta-Richmond County", "state": "Georgia", "population": 197.182, "growth": 1.0 },
{"num": 122, "name": "Grand Rapids", "state": "Michigan", "population": 195.097, "growth": -1.4 },
{"num": 123, "name": "Mobile", "state": "Alabama", "population": 194.288, "growth": -2.2 },
{"num": 124, "name": "Salt Lake City", "state": "Utah", "population": 192.672, "growth": 5.9 },
{"num": 125, "name": "Huntsville", "state": "Alabama", "population": 190.582, "growth": 19.0 },
{"num": 126, "name": "Tallahassee", "state": "Florida", "population": 189.907, "growth": 24.1 },
{"num": 127, "name": "Grand Prairie", "state": "Texas", "population": 187.809, "growth": 46.6 },
{"num": 128, "name": "Overland Park", "state": "Kansas", "population": 186.515, "growth": 22.9 },
{"num": 129, "name": "Knoxville", "state": "Tennessee", "population": 185.291, "growth": 5.1 },
{"num": 130, "name": "Worcester", "state": "Massachusetts", "population": 184.815, "growth": 7.1 },
{"num": 131, "name": "Brownsville", "state": "Texas", "population": 183.887, "growth": 28.2 },
{"num": 132, "name": "Newport News", "state": "Virginia", "population": 182.385, "growth": 1.1 },
{"num": 133, "name": "Santa Clarita", "state": "California", "population": 182.371, "growth": 17.1 },
{"num": 134, "name": "Port St. Lucie", "state": "Florida", "population": 179.413, "growth": 101.1 },
{"num": 135, "name": "Providence", "state": "Rhode Island", "population": 179.207, "growth": 3.0 },
{"num": 136, "name": "Fort Lauderdale", "state": "Florida", "population": 178.590, "growth": 4.3 },
{"num": 137, "name": "Chattanooga", "state": "Tennessee", "population": 176.588, "growth": 12.6 },
{"num": 138, "name": "Tempe", "state": "Arizona", "population": 175.826, "growth": 10.6 },
{"num": 139, "name": "Oceanside", "state": "California", "population": 175.691, "growth": 8.4 },
{"num": 140, "name": "Garden Grove", "state": "California", "population": 175.393, "growth": 6.0 },
{"num": 141, "name": "Rancho Cucamonga", "state": "California", "population": 175.236, "growth": 35.7 },
{"num": 142, "name": "Cape Coral", "state": "Florida", "population": 175.229, "growth": 69.5 },
{"num": 143, "name": "Santa Rosa", "state": "California", "population": 174.972, "growth": 17.2 },
{"num": 144, "name": "Vancouver", "state": "Washington", "population": 172.860, "growth": 17.9 },
{"num": 145, "name": "Sioux Falls", "state": "South Dakota", "population": 171.544, "growth": 36.5 },
{"num": 146, "name": "Peoria", "state": "Arizona", "population": 171.237, "growth": 54.3 },
{"num": 147, "name": "Ontario", "state": "California", "population": 171.214, "growth": 7.9 },
{"num": 148, "name": "Jackson", "state": "Mississippi", "population": 170.674, "growth": -7.8 },
{"num": 149, "name": "Elk Grove", "state": "California", "population": 166.913, "growth": 104.3 },
{"num": 150, "name": "Springfield", "state": "Missouri", "population": 166.810, "growth": 9.5 },
{"num": 151, "name": "Pembroke Pines", "state": "Florida", "population": 166.611, "growth": 20.5 },
{"num": 152, "name": "Salem", "state": "Oregon", "population": 164.549, "growth": 19.3 },
{"num": 153, "name": "Corona", "state": "California", "population": 164.226, "growth": 27.2 },
{"num": 154, "name": "Eugene", "state": "Oregon", "population": 163.460, "growth": 17.5 },
{"num": 155, "name": "McKinney", "state": "Texas", "population": 162.898, "growth": 190.9 },
{"num": 156, "name": "Fort Collins", "state": "Colorado", "population": 161.175, "growth": 34.2 },
{"num": 157, "name": "Lancaster", "state": "California", "population": 161.103, "growth": 35.2 },
{"num": 158, "name": "Cary", "state": "North Carolina", "population": 159.769, "growth": 64.0 },
{"num": 159, "name": "Palmdale", "state": "California", "population": 158.351, "growth": 34.7 },
{"num": 160, "name": "Hayward", "state": "California", "population": 158.289, "growth": 12.2 },
{"num": 161, "name": "Salinas", "state": "California", "population": 157.380, "growth": 9.6 },
{"num": 162, "name": "Frisco", "state": "Texas", "population": 154.407, "growth": 337.6 },
{"num": 163, "name": "Springfield", "state": "Massachusetts", "population": 154.341, "growth": 1.6 },
{"num": 164, "name": "Pasadena", "state": "Texas", "population": 153.784, "growth": 8.3 },
{"num": 165, "name": "Macon-Bibb County", "state": "Georgia", "population": 153.515, "growth": 0.0 },
{"num": 166, "name": "Alexandria", "state": "Virginia", "population": 153.511, "growth": 18.6 },
{"num": 167, "name": "Pomona", "state": "California", "population": 153.266, "growth": 3.4 },
{"num": 168, "name": "Lakewood", "state": "Colorado", "population": 152.597, "growth": 5.6 },
{"num": 169, "name": "Sunnyvale", "state": "California", "population": 151.754, "growth": 15.1 },
{"num": 170, "name": "Escondido", "state": "California", "population": 151.451, "growth": 12.7 },
{"num": 171, "name": "Kansas City", "state": "Kansas", "population": 151.306, "growth": 3.0 },
{"num": 172, "name": "Hollywood", "state": "Florida", "population": 149.728, "growth": 7.1 },
{"num": 173, "name": "Clarksville", "state": "Tennessee", "population": 149.176, "growth": 43.5 },
{"num": 174, "name": "Torrance", "state": "California", "population": 148.475, "growth": 7.4 },
{"num": 175, "name": "Rockford", "state": "Illinois", "population": 148.278, "growth": -2.3 },
{"num": 176, "name": "Joliet", "state": "Illinois", "population": 147.861, "growth": 36.6 },
{"num": 177, "name": "Paterson", "state": "New Jersey", "population": 147.754, "growth": -1.0 },
{"num": 178, "name": "Bridgeport", "state": "Connecticut", "population": 147.629, "growth": 5.7 },
{"num": 179, "name": "Naperville", "state": "Illinois", "population": 147.100, "growth": 13.7 },
{"num": 180, "name": "Savannah", "state": "Georgia", "population": 145.674, "growth": 9.7 },
{"num": 181, "name": "Mesquite", "state": "Texas", "population": 144.788, "growth": 15.8 },
{"num": 182, "name": "Syracuse", "state": "New York", "population": 144.142, "growth": -1.3 },
{"num": 183, "name": "Pasadena", "state": "California", "population": 142.250, "growth": 5.7 },
{"num": 184, "name": "Orange", "state": "California", "population": 140.992, "growth": 8.5 },
{"num": 185, "name": "Fullerton", "state": "California", "population": 140.847, "growth": 11.3 },
{"num": 186, "name": "Killeen", "state": "Texas", "population": 140.806, "growth": 56.2 },
{"num": 187, "name": "Dayton", "state": "Ohio", "population": 140.599, "growth": -15.2 },
{"num": 188, "name": "McAllen", "state": "Texas", "population": 140.269, "growth": 31.0 },
{"num": 189, "name": "Bellevue", "state": "Washington", "population": 139.820, "growth": 24.3 },
{"num": 190, "name": "Miramar", "state": "Florida", "population": 137.132, "growth": 83.9 },
{"num": 191, "name": "Hampton", "state": "Virginia", "population": 136.454, "growth": -6.8 },
{"num": 192, "name": "West Valley City", "state": "Utah", "population": 136.208, "growth": 24.6 },
{"num": 193, "name": "Warren", "state": "Michigan", "population": 135.358, "growth": -1.9 },
{"num": 194, "name": "Olathe", "state": "Kansas", "population": 134.305, "growth": 43.0 },
{"num": 195, "name": "Columbia", "state": "South Carolina", "population": 133.803, "growth": 12.0 },
{"num": 196, "name": "Thornton", "state": "Colorado", "population": 133.451, "growth": 60.2 },
{"num": 197, "name": "Carrollton", "state": "Texas", "population": 133.168, "growth": 20.7 },
{"num": 198, "name": "Midland", "state": "Texas", "population": 132.950, "growth": 39.9 },
{"num": 199, "name": "Charleston", "state": "South Carolina", "population": 132.609, "growth": 33.9 },
{"num": 200, "name": "Waco", "state": "Texas", "population": 132.356, "growth": 15.4 },
{"num": 201, "name": "Sterling Heights", "state": "Michigan", "population": 132.052, "growth": 5.9 },
{"num": 202, "name": "Denton", "state": "Texas", "population": 131.044, "growth": 56.6 },
{"num": 203, "name": "Cedar Rapids", "state": "Iowa", "population": 130.405, "growth": 7.0 },
{"num": 204, "name": "New Haven", "state": "Connecticut", "population": 130.322, "growth": 5.3 },
{"num": 205, "name": "Roseville", "state": "California", "population": 130.269, "growth": 60.2 },
{"num": 206, "name": "Gainesville", "state": "Florida", "population": 130.128, "growth": 15.1 },
{"num": 207, "name": "Visalia", "state": "California", "population": 130.104, "growth": 36.0 },
{"num": 208, "name": "Coral Springs", "state": "Florida", "population": 129.485, "growth": 8.1 },
{"num": 209, "name": "Thousand Oaks", "state": "California", "population": 129.339, "growth": 10.1 },
{"num": 210, "name": "Elizabeth", "state": "New Jersey", "population": 129.007, "growth": 6.7 },
{"num": 211, "name": "Stamford", "state": "Connecticut", "population": 128.874, "growth": 9.6 },
{"num": 212, "name": "Concord", "state": "California", "population": 128.667, "growth": 5.2 },
{"num": 213, "name": "Surprise", "state": "Arizona", "population": 128.422, "growth": 297.0 },
{"num": 214, "name": "Lafayette", "state": "Louisiana", "population": 127.657, "growth": 14.0 },
{"num": 215, "name": "Topeka", "state": "Kansas", "population": 127.265, "growth": 3.1 },
{"num": 216, "name": "Kent", "state": "Washington", "population": 126.952, "growth": 57.4 },
{"num": 217, "name": "Simi Valley", "state": "California", "population": 126.788, "growth": 13.2 },
{"num": 218, "name": "Santa Clara", "state": "California", "population": 126.215, "growth": 23.2 },
{"num": 219, "name": "Murfreesboro", "state": "Tennessee", "population": 126.118, "growth": 77.9 },
{"num": 220, "name": "Hartford", "state": "Connecticut", "population": 124.006, "growth": -0.1 },
{"num": 221, "name": "Athens-Clarke County", "state": "Georgia", "population": 122.604, "growth": 21.6 },
{"num": 222, "name": "Victorville", "state": "California", "population": 122.225, "growth": 89.4 },
{"num": 223, "name": "Abilene", "state": "Texas", "population": 121.721, "growth": 5.0 },
{"num": 224, "name": "Vallejo", "state": "California", "population": 121.253, "growth": 3.3 },
{"num": 225, "name": "Berkeley", "state": "California", "population": 120.972, "growth": 17.4 },
{"num": 226, "name": "Norman", "state": "Oklahoma", "population": 120.284, "growth": 24.2 },
{"num": 227, "name": "Allentown", "state": "Pennsylvania", "population": 120.207, "growth": 12.7 },
{"num": 228, "name": "Evansville", "state": "Indiana", "population": 119.943, "growth": -1.1 },
{"num": 229, "name": "Columbia", "state": "Missouri", "population": 119.108, "growth": 38.5 },
{"num": 230, "name": "Odessa", "state": "Texas", "population": 118.968, "growth": 31.4 },
{"num": 231, "name": "Fargo", "state": "North Dakota", "population": 118.523, "growth": 30.3 },
{"num": 232, "name": "Beaumont", "state": "Texas", "population": 118.129, "growth": 4.0 },
{"num": 233, "name": "Independence", "state": "Missouri", "population": 117.255, "growth": 3.2 },
{"num": 234, "name": "Ann Arbor", "state": "Michigan", "population": 117.070, "growth": 2.1 },
{"num": 235, "name": "El Monte", "state": "California", "population": 116.732, "growth": 0.4 },
{"num": 236, "name": "Springfield", "state": "Illinois", "population": 116.565, "growth": 3.8 },
{"num": 237, "name": "Round Rock", "state": "Texas", "population": 115.997, "growth": 91.1 },
{"num": 238, "name": "Wilmington", "state": "North Carolina", "population": 115.933, "growth": 29.1 },
{"num": 239, "name": "Arvada", "state": "Colorado", "population": 115.368, "growth": 12.8 },
{"num": 240, "name": "Provo", "state": "Utah", "population": 115.264, "growth": 9.0 },
{"num": 241, "name": "Peoria", "state": "Illinois", "population": 115.070, "growth": 1.8 },
{"num": 242, "name": "Lansing", "state": "Michigan", "population": 115.056, "growth": -3.5 },
{"num": 243, "name": "Downey", "state": "California", "population": 114.219, "growth": 6.2 },
{"num": 244, "name": "Carlsbad", "state": "California", "population": 113.453, "growth": 42.8 },
{"num": 245, "name": "Costa Mesa", "state": "California", "population": 113.204, "growth": 3.4 },
{"num": 246, "name": "Miami Gardens", "state": "Florida", "population": 113.187, "growth": 12.3 },
{"num": 247, "name": "Westminster", "state": "Colorado", "population": 113.130, "growth": 11.6 },
{"num": 248, "name": "Clearwater", "state": "Florida", "population": 113.003, "growth": 3.1 },
{"num": 249, "name": "Fairfield", "state": "California", "population": 112.970, "growth": 16.6 },
{"num": 250, "name": "Rochester", "state": "Minnesota", "population": 112.225, "growth": 25.5 },
{"num": 251, "name": "Elgin", "state": "Illinois", "population": 112.111, "growth": 18.1 },
{"num": 252, "name": "Temecula", "state": "California", "population": 112.011, "growth": 63.0 },
{"num": 253, "name": "West Jordan", "state": "Utah", "population": 111.946, "growth": 40.8 },
{"num": 254, "name": "Inglewood", "state": "California", "population": 111.666, "growth": -0.9 },
{"num": 255, "name": "Richardson", "state": "Texas", "population": 110.815, "growth": 20.0 },
{"num": 256, "name": "Lowell", "state": "Massachusetts", "population": 110.699, "growth": 5.2 },
{"num": 257, "name": "Gresham", "state": "Oregon", "population": 110.553, "growth": 21.9 },
{"num": 258, "name": "Antioch", "state": "California", "population": 110.542, "growth": 20.7 },
{"num": 259, "name": "Cambridge", "state": "Massachusetts", "population": 110.402, "growth": 8.5 },
{"num": 260, "name": "High Point", "state": "North Carolina", "population": 110.268, "growth": 27.3 },
{"num": 261, "name": "Billings", "state": "Montana", "population": 110.263, "growth": 19.9 },
{"num": 262, "name": "Manchester", "state": "New Hampshire", "population": 110.229, "growth": 2.7 },
{"num": 263, "name": "Murrieta", "state": "California", "population": 109.830, "growth": 112.0 },
{"num": 264, "name": "Centennial", "state": "Colorado", "population": 109.741, "growth": 7.1 },
{"num": 266, "name": "San Buenaventura (Ventura)", "state": "California", "population": 109.708, "growth": 8.3 },
{"num": 265, "name": "Richmond", "state": "California", "population": 109.708, "growth": 10.1 },
{"num": 267, "name": "Pueblo", "state": "Colorado", "population": 109.412, "growth": 7.1 },
{"num": 268, "name": "Pearland", "state": "Texas", "population": 108.821, "growth": 136.2 },
{"num": 269, "name": "Waterbury", "state": "Connecticut", "population": 108.802, "growth": 1.3 },
{"num": 270, "name": "West Covina", "state": "California", "population": 108.484, "growth": 3.0 },
{"num": 271, "name": "North Charleston", "state": "South Carolina", "population": 108.304, "growth": 32.6 },
{"num": 272, "name": "Everett", "state": "Washington", "population": 108.010, "growth": 12.1 },
{"num": 273, "name": "College Station", "state": "Texas", "population": 107.889, "growth": 56.5 },
{"num": 274, "name": "Palm Bay", "state": "Florida", "population": 107.888, "growth": 35.4 },
{"num": 275, "name": "Pompano Beach", "state": "Florida", "population": 107.762, "growth": 7.4 },
{"num": 276, "name": "Boulder", "state": "Colorado", "population": 107.349, "growth": 13.4 },
{"num": 277, "name": "Norwalk", "state": "California", "population": 107.140, "growth": 2.4 },
{"num": 278, "name": "West Palm Beach", "state": "Florida", "population": 106.779, "growth": 28.8 },
{"num": 279, "name": "Broken Arrow", "state": "Oklahoma", "population": 106.563, "growth": 32.0 },
{"num": 280, "name": "Daly City", "state": "California", "population": 106.562, "growth": 2.8 },
{"num": 281, "name": "Sandy Springs", "state": "Georgia", "population": 105.330, "growth": 23.9 },
{"num": 282, "name": "Burbank", "state": "California", "population": 105.319, "growth": 4.8 },
{"num": 283, "name": "Green Bay", "state": "Wisconsin", "population": 105.207, "growth": 2.3 },
{"num": 284, "name": "Santa Maria", "state": "California", "population": 105.093, "growth": 34.6 },
{"num": 285, "name": "Wichita Falls", "state": "Texas", "population": 104.710, "growth": 0.5 },
{"num": 286, "name": "Lakeland", "state": "Florida", "population": 104.401, "growth": 22.7 },
{"num": 287, "name": "Clovis", "state": "California", "population": 104.180, "growth": 49.0 },
{"num": 288, "name": "Lewisville", "state": "Texas", "population": 104.039, "growth": 32.7 },
{"num": 289, "name": "Tyler", "state": "Texas", "population": 103.700, "growth": 22.7 },
{"num": 290, "name": "El Cajon", "state": "California", "population": 103.679, "growth": 9.0 },
{"num": 291, "name": "San Mateo", "state": "California", "population": 103.536, "growth": 11.6 },
{"num": 292, "name": "Rialto", "state": "California", "population": 103.132, "growth": 11.1 },
{"num": 293, "name": "Davenport", "state": "Iowa", "population": 102.582, "growth": 4.4 },
{"num": 294, "name": "Hillsboro", "state": "Oregon", "population": 102.347, "growth": 43.4 },
{"num": 295, "name": "Las Cruces", "state": "New Mexico", "population": 101.643, "growth": 38.0 },
{"num": 296, "name": "South Bend", "state": "Indiana", "population": 101.516, "growth": -6.3 },
{"num": 297, "name": "Vista", "state": "California", "population": 100.890, "growth": 12.1 },
{"num": 298, "name": "Greeley", "state": "Colorado", "population": 100.883, "growth": 28.7 },
{"num": 299, "name": "Davie", "state": "Florida", "population": 100.882, "growth": 22.7 },
{"num": 300, "name": "San Angelo", "state": "Texas", "population": 100.450, "growth": 13.5 },
{"num": 301, "name": "Jurupa Valley", "state": "California", "population": 100.314, "growth": 0.0 },
{"num": 302, "name": "Renton", "state": "Washington", "population": 100.242, "growth": 94.7 },
{"num": 303, "name": "Roanoke", "state": "Virginia", "population": 99.897, "growth": 5.3 },
{"num": 304, "name": "Kenosha", "state": "Wisconsin", "population": 99.858, "growth": 9.5 },
{"num": 305, "name": "Erie", "state": "Pennsylvania", "population": 99.475, "growth": -4.0 },
{"num": 306, "name": "Albany", "state": "New York", "population": 98.469, "growth": 4.1 },
{"num": 307, "name": "Compton", "state": "California", "population": 98.462, "growth": 5.1 },
{"num": 308, "name": "Tuscaloosa", "state": "Alabama", "population": 98.332, "growth": 24.9 },
{"num": 309, "name": "League City", "state": "Texas", "population": 98.312, "growth": 114.3 },
{"num": 310, "name": "Flint", "state": "Michigan", "population": 98.310, "growth": -21.1 },
{"num": 311, "name": "Allen", "state": "Texas", "population": 98.143, "growth": 117.6 },
{"num": 312, "name": "Mission Viejo", "state": "California", "population": 97.156, "growth": 3.7 },
{"num": 313, "name": "Vacaville", "state": "California", "population": 96.803, "growth": 8.2 },
{"num": 314, "name": "Lawton", "state": "Oklahoma", "population": 96.655, "growth": 4.4 },
{"num": 315, "name": "Beaverton", "state": "Oregon", "population": 96.577, "growth": 20.8 },
{"num": 316, "name": "South Gate", "state": "California", "population": 96.401, "growth": -0.1 },
{"num": 317, "name": "Portsmouth", "state": "Virginia", "population": 96.201, "growth": -4.2 },
{"num": 318, "name": "Sparks", "state": "Nevada", "population": 96.094, "growth": 43.6 },
{"num": 319, "name": "Brockton", "state": "Massachusetts", "population": 95.314, "growth": 0.9 },
{"num": 321, "name": "Federal Way", "state": "Washington", "population": 95.171, "growth": 11.7 },
{"num": 320, "name": "Dearborn", "state": "Michigan", "population": 95.171, "growth": -2.7 },
{"num": 322, "name": "Lee's Summit", "state": "Missouri", "population": 95.094, "growth": 33.9 },
{"num": 323, "name": "New Bedford", "state": "Massachusetts", "population": 94.958, "growth": 1.1 },
{"num": 324, "name": "Spokane Valley", "state": "Washington", "population": 94.919, "growth": 17.3 },
{"num": 325, "name": "Livonia", "state": "Michigan", "population": 94.635, "growth": -5.9 },
{"num": 326, "name": "Roswell", "state": "Georgia", "population": 94.501, "growth": 15.8 },
{"num": 327, "name": "Orem", "state": "Utah", "population": 94.457, "growth": 11.8 },
{"num": 328, "name": "Rio Rancho", "state": "New Mexico", "population": 94.171, "growth": 78.6 },
{"num": 329, "name": "Yuma", "state": "Arizona", "population": 94.139, "growth": 19.0 },
{"num": 330, "name": "Lawrence", "state": "Kansas", "population": 93.917, "growth": 16.5 },
{"num": 331, "name": "Yakima", "state": "Washington", "population": 93.701, "growth": 12.2 },
{"num": 332, "name": "Quincy", "state": "Massachusetts", "population": 93.618, "growth": 5.9 },
{"num": 333, "name": "Sandy", "state": "Utah", "population": 93.613, "growth": 5.1 },
{"num": 334, "name": "Hesperia", "state": "California", "population": 93.295, "growth": 47.9 },
{"num": 335, "name": "Carson", "state": "California", "population": 93.281, "growth": 3.6 },
{"num": 336, "name": "Boca Raton", "state": "Florida", "population": 93.235, "growth": 12.1 },
{"num": 337, "name": "Santa Monica", "state": "California", "population": 93.220, "growth": 10.4 },
{"num": 338, "name": "San Marcos", "state": "California", "population": 92.931, "growth": 66.3 },
{"num": 339, "name": "Sunrise", "state": "Florida", "population": 92.700, "growth": 7.7 },
{"num": 340, "name": "Plantation", "state": "Florida", "population": 92.560, "growth": 11.4 },
{"num": 341, "name": "Lynn", "state": "Massachusetts", "population": 92.457, "growth": 3.6 },
{"num": 342, "name": "Miami Beach", "state": "Florida", "population": 92.312, "growth": 4.8 },
{"num": 343, "name": "Westminster", "state": "California", "population": 92.114, "growth": 4.3 },
{"num": 344, "name": "Longmont", "state": "Colorado", "population": 92.088, "growth": 27.4 },
{"num": 345, "name": "Santa Barbara", "state": "California", "population": 91.842, "growth": 2.5 },
{"num": 346, "name": "Redding", "state": "California", "population": 91.582, "growth": 12.5 },
{"num": 347, "name": "Meridian", "state": "Idaho", "population": 90.739, "growth": 147.0 },
{"num": 348, "name": "San Leandro", "state": "California", "population": 90.712, "growth": 13.7 },
{"num": 349, "name": "Greenville", "state": "North Carolina", "population": 90.597, "growth": 44.2 },
{"num": 350, "name": "Chico", "state": "California", "population": 90.316, "growth": 17.1 },
{"num": 351, "name": "Edmond", "state": "Oklahoma", "population": 90.092, "growth": 31.4 },
{"num": 352, "name": "Nampa", "state": "Idaho", "population": 89.839, "growth": 64.0 },
{"num": 353, "name": "Newton", "state": "Massachusetts", "population": 88.817, "growth": 6.0 },
{"num": 354, "name": "Fall River", "state": "Massachusetts", "population": 88.777, "growth": -3.6 },
{"num": 355, "name": "Carmel", "state": "Indiana", "population": 88.713, "growth": 65.6 },
{"num": 356, "name": "Fishers", "state": "Indiana", "population": 88.658, "growth": 127.0 },
{"num": 357, "name": "Asheville", "state": "North Carolina", "population": 88.512, "growth": 21.4 },
{"num": 358, "name": "Norwalk", "state": "Connecticut", "population": 88.485, "growth": 6.5 },
{"num": 359, "name": "Waukegan", "state": "Illinois", "population": 88.475, "growth": 0.1 },
{"num": 360, "name": "Deltona", "state": "Florida", "population": 88.474, "growth": 26.2 },
{"num": 361, "name": "Hawthorne", "state": "California", "population": 88.451, "growth": 5.0 },
{"num": 362, "name": "Fort Smith", "state": "Arkansas", "population": 88.194, "growth": 9.2 },
{"num": 363, "name": "Suffolk", "state": "Virginia", "population": 88.161, "growth": 37.3 },
{"num": 364, "name": "Sugar Land", "state": "Texas", "population": 88.156, "growth": 35.8 },
{"num": 365, "name": "Livermore", "state": "California", "population": 88.126, "growth": 19.1 },
{"num": 366, "name": "Nashua", "state": "New Hampshire", "population": 87.970, "growth": 1.3 },
{"num": 367, "name": "Reading", "state": "Pennsylvania", "population": 87.879, "growth": 8.0 },
{"num": 368, "name": "Concord", "state": "North Carolina", "population": 87.696, "growth": 54.8 },
{"num": 369, "name": "Indio", "state": "California", "population": 87.533, "growth": 73.9 },
{"num": 370, "name": "Whittier", "state": "California", "population": 87.438, "growth": 4.3 },
{"num": 371, "name": "Kirkland", "state": "Washington", "population": 87.281, "growth": 93.8 },
{"num": 372, "name": "Menifee", "state": "California", "population": 87.174, "growth": 103.7 },
{"num": 373, "name": "Newport Beach", "state": "California", "population": 87.127, "growth": 10.2 },
{"num": 374, "name": "Tracy", "state": "California", "population": 87.075, "growth": 50.0 },
{"num": 375, "name": "Citrus Heights", "state": "California", "population": 87.056, "growth": 1.9 },
{"num": 376, "name": "Bend", "state": "Oregon", "population": 87.014, "growth": 65.3 },
{"num": 377, "name": "Bloomington", "state": "Minnesota", "population": 86.435, "growth": 1.5 },
{"num": 378, "name": "Clifton", "state": "New Jersey", "population": 86.334, "growth": 9.1 },
{"num": 379, "name": "Duluth", "state": "Minnesota", "population": 86.110, "growth": -0.1 },
{"num": 380, "name": "Champaign", "state": "Illinois", "population": 86.096, "growth": 22.1 },
{"num": 381, "name": "Chino", "state": "California", "population": 85.595, "growth": 22.2 },
{"num": 382, "name": "Alhambra", "state": "California", "population": 85.551, "growth": 0.4 },
{"num": 383, "name": "Ogden", "state": "Utah", "population": 85.444, "growth": 10.1 },
{"num": 384, "name": "Redwood City", "state": "California", "population": 85.288, "growth": 13.0 },
{"num": 385, "name": "Bellingham", "state": "Washington", "population": 85.146, "growth": 25.5 },
{"num": 386, "name": "O'Fallon", "state": "Missouri", "population": 85.040, "growth": 67.0 },
{"num": 387, "name": "Hoover", "state": "Alabama", "population": 84.848, "growth": 33.8 },
{"num": 388, "name": "Danbury", "state": "Connecticut", "population": 84.657, "growth": 12.7 },
{"num": 389, "name": "Edinburg", "state": "Texas", "population": 84.497, "growth": 72.6 },
{"num": 390, "name": "Trenton", "state": "New Jersey", "population": 84.225, "growth": -1.3 },
{"num": 391, "name": "Santa Fe", "state": "New Mexico", "population": 84.099, "growth": 32.8 },
{"num": 392, "name": "Bloomington", "state": "Indiana", "population": 84.067, "growth": 18.2 },
{"num": 393, "name": "Cicero", "state": "Illinois", "population": 83.886, "growth": -1.8 },
{"num": 394, "name": "Hemet", "state": "California", "population": 83.861, "growth": 41.1 },
{"num": 395, "name": "Johns Creek", "state": "Georgia", "population": 83.335, "growth": 37.4 },
{"num": 396, "name": "Mission", "state": "Texas", "population": 83.298, "growth": 79.3 },
{"num": 397, "name": "Troy", "state": "Michigan", "population": 83.280, "growth": 2.8 },
{"num": 398, "name": "Buena Park", "state": "California", "population": 83.270, "growth": 6.6 },
{"num": 399, "name": "Palm Coast", "state": "Florida", "population": 82.893, "growth": 149.7 },
{"num": 400, "name": "Fayetteville", "state": "Arkansas", "population": 82.830, "growth": 39.4 },
{"num": 401, "name": "Sioux City", "state": "Iowa", "population": 82.821, "growth": -2.5 },
{"num": 402, "name": "Lake Forest", "state": "California", "population": 82.492, "growth": 8.4 },
{"num": 403, "name": "Merced", "state": "California", "population": 82.436, "growth": 27.5 },
{"num": 404, "name": "Longview", "state": "Texas", "population": 82.287, "growth": 12.8 },
{"num": 405, "name": "Bryan", "state": "Texas", "population": 82.118, "growth": 24.5 },
{"num": 406, "name": "Westland", "state": "Michigan", "population": 82.000, "growth": -5.4 },
{"num": 407, "name": "Warwick", "state": "Rhode Island", "population": 81.699, "growth": -4.9 },
{"num": 408, "name": "Lakewood", "state": "California", "population": 81.611, "growth": 2.7 },
{"num": 409, "name": "Farmington Hills", "state": "Michigan", "population": 81.330, "growth": -0.8 },
{"num": 410, "name": "Mount Pleasant", "state": "South Carolina", "population": 81.317, "growth": 66.3 },
{"num": 411, "name": "Cranston", "state": "Rhode Island", "population": 81.073, "growth": 2.0 },
{"num": 412, "name": "Largo", "state": "Florida", "population": 81.000, "growth": 8.6 },
{"num": 413, "name": "Avondale", "state": "Arizona", "population": 80.684, "growth": 116.5 },
{"num": 414, "name": "Tustin", "state": "California", "population": 80.583, "growth": 19.0 },
{"num": 415, "name": "Mountain View", "state": "California", "population": 80.435, "growth": 13.7 },
{"num": 416, "name": "Napa", "state": "California", "population": 80.434, "growth": 10.3 },
{"num": 417, "name": "Somerville", "state": "Massachusetts", "population": 80.318, "growth": 3.6 },
{"num": 418, "name": "Lawrence", "state": "Massachusetts", "population": 80.231, "growth": 11.1 },
{"num": 419, "name": "St. George", "state": "Utah", "population": 80.202, "growth": 59.8 },
{"num": 420, "name": "Melbourne", "state": "Florida", "population": 80.127, "growth": 9.5 },
{"num": 421, "name": "Parma", "state": "Ohio", "population": 79.937, "growth": -6.5 },
{"num": 422, "name": "New Rochelle", "state": "New York", "population": 79.846, "growth": 10.4 },
{"num": 423, "name": "Lynchburg", "state": "Virginia", "population": 79.812, "growth": 22.2 },
{"num": 424, "name": "Medford", "state": "Oregon", "population": 79.805, "growth": 20.3 },
{"num": 425, "name": "Deerfield Beach", "state": "Florida", "population": 79.768, "growth": 7.1 },
{"num": 426, "name": "Pleasanton", "state": "California", "population": 79.510, "growth": 23.6 },
{"num": 427, "name": "Brooklyn Park", "state": "Minnesota", "population": 79.149, "growth": 17.1 },
{"num": 428, "name": "Goodyear", "state": "Arizona", "population": 79.003, "growth": 302.3 },
{"num": 429, "name": "Kennewick", "state": "Washington", "population": 78.896, "growth": 32.7 },
{"num": 430, "name": "Alameda", "state": "California", "population": 78.630, "growth": 8.4 },
{"num": 431, "name": "Bellflower", "state": "California", "population": 78.441, "growth": 7.4 },
{"num": 432, "name": "Chino Hills", "state": "California", "population": 78.309, "growth": 16.2 },
{"num": 433, "name": "Bloomington", "state": "Illinois", "population": 78.292, "growth": 19.1 },
{"num": 434, "name": "Springdale", "state": "Arkansas", "population": 77.859, "growth": 62.6 },
{"num": 435, "name": "Racine", "state": "Wisconsin", "population": 77.742, "growth": -5.0 },
{"num": 436, "name": "Hammond", "state": "Indiana", "population": 77.614, "growth": -6.2 },
{"num": 437, "name": "Milpitas", "state": "California", "population": 77.604, "growth": 23.4 },
{"num": 438, "name": "Gary", "state": "Indiana", "population": 77.156, "growth": -24.7 },
{"num": 439, "name": "Scranton", "state": "Pennsylvania", "population": 77.118, "growth": 1.6 },
{"num": 440, "name": "Baldwin Park", "state": "California", "population": 77.071, "growth": 1.4 },
{"num": 441, "name": "Auburn", "state": "Washington", "population": 77.006, "growth": 38.8 },
{"num": 442, "name": "St. Joseph", "state": "Missouri", "population": 76.596, "growth": 3.3 },
{"num": 443, "name": "Pharr", "state": "Texas", "population": 76.538, "growth": 61.5 },
{"num": 444, "name": "Upland", "state": "California", "population": 76.443, "growth": 11.0 },
{"num": 445, "name": "Folsom", "state": "California", "population": 76.375, "growth": 44.8 },
{"num": 446, "name": "Baytown", "state": "Texas", "population": 76.335, "growth": 14.5 },
{"num": 447, "name": "San Ramon", "state": "California", "population": 76.134, "growth": 69.4 },
{"num": 448, "name": "Camden", "state": "New Jersey", "population": 76.119, "growth": -4.5 },
{"num": 449, "name": "Lake Charles", "state": "Louisiana", "population": 76.070, "growth": 5.8 },
{"num": 450, "name": "Kalamazoo", "state": "Michigan", "population": 76.041, "growth": -1.2 },
{"num": 451, "name": "Arlington Heights", "state": "Illinois", "population": 75.926, "growth": -0.7 },
{"num": 452, "name": "Plymouth", "state": "Minnesota", "population": 75.907, "growth": 14.9 },
{"num": 453, "name": "Evanston", "state": "Illinois", "population": 75.527, "growth": 1.8 },
{"num": 454, "name": "Manteca", "state": "California", "population": 75.448, "growth": 49.6 },
{"num": 455, "name": "Wyoming", "state": "Michigan", "population": 75.275, "growth": 8.2 },
{"num": 456, "name": "Loveland", "state": "Colorado", "population": 75.182, "growth": 44.9 },
{"num": 457, "name": "Perris", "state": "California", "population": 74.971, "growth": 106.0 },
{"num": 458, "name": "Bethlehem", "state": "Pennsylvania", "population": 74.892, "growth": 5.0 },
{"num": 459, "name": "Albany", "state": "Georgia", "population": 74.843, "growth": -2.4 },
{"num": 460, "name": "Schaumburg", "state": "Illinois", "population": 74.693, "growth": -0.8 },
{"num": 461, "name": "Gastonia", "state": "North Carolina", "population": 74.543, "growth": 10.2 },
{"num": 462, "name": "Union City", "state": "California", "population": 74.494, "growth": 10.4 },
{"num": 463, "name": "Bolingbrook", "state": "Illinois", "population": 74.306, "growth": 30.4 },
{"num": 464, "name": "Iowa City", "state": "Iowa", "population": 74.220, "growth": 18.0 },
{"num": 465, "name": "Layton", "state": "Utah", "population": 74.143, "growth": 25.9 },
{"num": 466, "name": "Appleton", "state": "Wisconsin", "population": 74.139, "growth": 5.3 },
{"num": 467, "name": "Missouri City", "state": "Texas", "population": 74.139, "growth": 38.5 },
{"num": 468, "name": "Fort Myers", "state": "Florida", "population": 74.013, "growth": 42.4 },
{"num": 469, "name": "Boynton Beach", "state": "Florida", "population": 73.966, "growth": 22.0 },
{"num": 470, "name": "Jonesboro", "state": "Arkansas", "population": 73.907, "growth": 32.5 },
{"num": 471, "name": "Rapid City", "state": "South Dakota", "population": 73.569, "growth": 22.5 },
{"num": 472, "name": "Warner Robins", "state": "Georgia", "population": 73.490, "growth": 47.6 },
{"num": 473, "name": "Rochester Hills", "state": "Michigan", "population": 73.424, "growth": 6.4 },
{"num": 474, "name": "Decatur", "state": "Illinois", "population": 73.254, "growth": -10.5 },
{"num": 475, "name": "Southfield", "state": "Michigan", "population": 73.156, "growth": -6.5 },
{"num": 476, "name": "New Britain", "state": "Connecticut", "population": 72.808, "growth": 1.7 },
{"num": 477, "name": "Franklin", "state": "Tennessee", "population": 72.639, "growth": 56.6 },
{"num": 478, "name": "Turlock", "state": "California", "population": 72.292, "growth": 26.9 },
{"num": 479, "name": "Temple", "state": "Texas", "population": 72.277, "growth": 30.9 },
{"num": 480, "name": "Apple Valley", "state": "California", "population": 72.174, "growth": 32.1 },
{"num": 481, "name": "Lynwood", "state": "California", "population": 71.989, "growth": 2.9 },
{"num": 482, "name": "Waukesha", "state": "Wisconsin", "population": 71.970, "growth": 9.5 },
{"num": 483, "name": "Wilmington", "state": "Delaware", "population": 71.948, "growth": -1.0 },
{"num": 484, "name": "Canton", "state": "Ohio", "population": 71.885, "growth": -11.1 },
{"num": 485, "name": "Gulfport", "state": "Mississippi", "population": 71.856, "growth": 0.5 },
{"num": 486, "name": "Pawtucket", "state": "Rhode Island", "population": 71.591, "growth": -1.9 },
{"num": 487, "name": "Lauderhill", "state": "Florida", "population": 71.579, "growth": 6.9 },
{"num": 488, "name": "Rock Hill", "state": "South Carolina", "population": 71.548, "growth": 40.9 },
{"num": 489, "name": "Flower Mound", "state": "Texas", "population": 71.253, "growth": 37.6 },
{"num": 490, "name": "Bismarck", "state": "North Dakota", "population": 71.167, "growth": 27.5 },
{"num": 491, "name": "Lafayette", "state": "Indiana", "population": 71.111, "growth": 15.7 },
{"num": 492, "name": "Passaic", "state": "New Jersey", "population": 71.085, "growth": 4.6 },
{"num": 493, "name": "Redlands", "state": "California", "population": 71.035, "growth": 11.0 },
{"num": 494, "name": "Missoula", "state": "Montana", "population": 71.022, "growth": 23.0 },
{"num": 495, "name": "Rancho Cordova", "state": "California", "population": 71.017, "growth": 32.1 },
{"num": 496, "name": "New Braunfels", "state": "Texas", "population": 70.543, "growth": 82.8 },
{"num": 497, "name": "Flagstaff", "state": "Arizona", "population": 70.320, "growth": 32.4 },
{"num": 498, "name": "Muncie", "state": "Indiana", "population": 70.087, "growth": -1.0 },
{"num": 499, "name": "Weston", "state": "Florida", "population": 69.959, "growth": 37.6 },
{"num": 500, "name": "Frederick", "state": "Maryland", "population": 69.479, "growth": 30.8 },
{"num": 501, "name": "Pasco", "state": "Washington", "population": 69.451, "growth": 104.0 },
{"num": 502, "name": "Pittsburg", "state": "California", "population": 69.424, "growth": 21.4 },
{"num": 503, "name": "Palatine", "state": "Illinois", "population": 69.308, "growth": 4.4 },
{"num": 504, "name": "North Richland Hills", "state": "Texas", "population": 69.204, "growth": 23.6 },
{"num": 505, "name": "Union City", "state": "New Jersey", "population": 69.156, "growth": 3.1 },
{"num": 506, "name": "Kissimmee", "state": "Florida", "population": 69.152, "growth": 40.7 },
{"num": 507, "name": "Walnut Creek", "state": "California", "population": 68.910, "growth": 6.6 },
{"num": 508, "name": "St. Charles", "state": "Missouri", "population": 68.796, "growth": 13.3 },
{"num": 509, "name": "Mount Vernon", "state": "New York", "population": 68.628, "growth": 0.2 },
{"num": 510, "name": "Conroe", "state": "Texas", "population": 68.602, "growth": 76.2 },
{"num": 511, "name": "Dothan", "state": "Alabama", "population": 68.567, "growth": 17.5 },
{"num": 512, "name": "Waterloo", "state": "Iowa", "population": 68.460, "growth": -0.4 },
{"num": 513, "name": "Maple Grove", "state": "Minnesota", "population": 68.385, "growth": 33.1 },
{"num": 514, "name": "Redondo Beach", "state": "California", "population": 68.166, "growth": 7.3 },
{"num": 515, "name": "Bossier City", "state": "Louisiana", "population": 68.094, "growth": 20.5 },
{"num": 516, "name": "Yorba Linda", "state": "California", "population": 67.973, "growth": 15.0 },
{"num": 517, "name": "Woodbury", "state": "Minnesota", "population": 67.855, "growth": 44.4 },
{"num": 518, "name": "Eau Claire", "state": "Wisconsin", "population": 67.778, "growth": 9.0 },
{"num": 519, "name": "Davis", "state": "California", "population": 67.666, "growth": 14.3 },
{"num": 520, "name": "Camarillo", "state": "California", "population": 67.608, "growth": 17.5 },
{"num": 521, "name": "Victoria", "state": "Texas", "population": 67.574, "growth": 11.6 },
{"num": 522, "name": "Gaithersburg", "state": "Maryland", "population": 67.456, "growth": 27.6 },
{"num": 523, "name": "Jacksonville", "state": "North Carolina", "population": 67.357, "growth": 2.4 },
{"num": 524, "name": "South San Francisco", "state": "California", "population": 67.271, "growth": 10.9 },
{"num": 525, "name": "St. Cloud", "state": "Minnesota", "population": 67.109, "growth": 12.2 },
{"num": 526, "name": "Kenner", "state": "Louisiana", "population": 67.091, "growth": -4.6 },
{"num": 527, "name": "Rockville", "state": "Maryland", "population": 66.980, "growth": 40.0 },
{"num": 528, "name": "Jackson", "state": "Tennessee", "population": 66.975, "growth": 11.7 },
{"num": 529, "name": "Yuba City", "state": "California", "population": 66.941, "growth": 30.9 },
{"num": 530, "name": "Portland", "state": "Maine", "population": 66.881, "growth": 4.1 },
{"num": 531, "name": "Palo Alto", "state": "California", "population": 66.853, "growth": 14.1 },
{"num": 532, "name": "Marysville", "state": "Washington", "population": 66.773, "growth": 127.6 },
{"num": 533, "name": "South Jordan", "state": "Utah", "population": 66.648, "growth": 124.6 },
{"num": 534, "name": "Oshkosh", "state": "Wisconsin", "population": 66.555, "growth": 5.0 },
{"num": 535, "name": "North Little Rock", "state": "Arkansas", "population": 66.504, "growth": 9.7 },
{"num": 536, "name": "Homestead", "state": "Florida", "population": 66.498, "growth": 108.3 },
{"num": 537, "name": "Bayonne", "state": "New Jersey", "population": 66.311, "growth": 7.2 },
{"num": 538, "name": "Eagan", "state": "Minnesota", "population": 66.286, "growth": 4.0 },
{"num": 539, "name": "Delray Beach", "state": "Florida", "population": 66.255, "growth": 9.8 },
{"num": 540, "name": "Johnson City", "state": "Tennessee", "population": 66.027, "growth": 17.9 },
{"num": 541, "name": "Cedar Park", "state": "Texas", "population": 65.945, "growth": 152.4 },
{"num": 542, "name": "Laguna Niguel", "state": "California", "population": 65.806, "growth": 4.6 },
{"num": 543, "name": "Harlingen", "state": "Texas", "population": 65.774, "growth": 11.8 },
{"num": 544, "name": "San Clemente", "state": "California", "population": 65.526, "growth": 29.6 },
{"num": 545, "name": "Schenectady", "state": "New York", "population": 65.305, "growth": 5.7 },
{"num": 546, "name": "Broomfield", "state": "Colorado", "population": 65.065, "growth": 64.4 },
{"num": 547, "name": "Ames", "state": "Iowa", "population": 65.060, "growth": 27.7 },
{"num": 548, "name": "Shawnee", "state": "Kansas", "population": 65.046, "growth": 33.7 },
{"num": 549, "name": "Conway", "state": "Arkansas", "population": 64.980, "growth": 48.7 },
{"num": 550, "name": "East Orange", "state": "New Jersey", "population": 64.949, "growth": -6.8 },
{"num": 551, "name": "Skokie", "state": "Illinois", "population": 64.821, "growth": 2.3 },
{"num": 552, "name": "Daytona Beach", "state": "Florida", "population": 64.736, "growth": 1.4 },
{"num": 553, "name": "Tamarac", "state": "Florida", "population": 64.681, "growth": 15.6 },
{"num": 554, "name": "Youngstown", "state": "Ohio", "population": 64.628, "growth": -20.9 },
{"num": 555, "name": "Lodi", "state": "California", "population": 64.596, "growth": 12.3 },
{"num": 556, "name": "Greenville", "state": "South Carolina", "population": 64.579, "growth": 13.8 },
{"num": 557, "name": "Mansfield", "state": "Texas", "population": 64.274, "growth": 126.1 },
{"num": 558, "name": "Santa Cruz", "state": "California", "population": 64.220, "growth": 14.9 },
{"num": 559, "name": "Pico Rivera", "state": "California", "population": 64.218, "growth": 1.1 },
{"num": 560, "name": "Madera", "state": "California", "population": 64.208, "growth": 47.0 },
{"num": 561, "name": "Janesville", "state": "Wisconsin", "population": 64.123, "growth": 6.1 },
{"num": 562, "name": "West Des Moines", "state": "Iowa", "population": 64.113, "growth": 35.8 },
{"num": 563, "name": "Montebello", "state": "California", "population": 63.921, "growth": 2.7 },
{"num": 564, "name": "Georgetown", "state": "Texas", "population": 63.716, "growth": 122.7 },
{"num": 565, "name": "Alpharetta", "state": "Georgia", "population": 63.693, "growth": 36.6 },
{"num": 566, "name": "Lorain", "state": "Ohio", "population": 63.647, "growth": -7.3 },
{"num": 567, "name": "Bowling Green", "state": "Kentucky", "population": 63.616, "growth": 28.4 },
{"num": 568, "name": "Eden Prairie", "state": "Minnesota", "population": 63.496, "growth": 14.9 },
{"num": 569, "name": "Waltham", "state": "Massachusetts", "population": 63.378, "growth": 7.0 },
{"num": 570, "name": "Cheyenne", "state": "Wyoming", "population": 63.335, "growth": 18.5 },
{"num": 571, "name": "Rogers", "state": "Arkansas", "population": 63.159, "growth": 58.2 },
{"num": 572, "name": "Encinitas", "state": "California", "population": 62.930, "growth": 8.1 },
{"num": 573, "name": "Haverhill", "state": "Massachusetts", "population": 62.765, "growth": 6.1 },
{"num": 574, "name": "Jupiter", "state": "Florida", "population": 62.707, "growth": 57.2 },
{"num": 575, "name": "Council Bluffs", "state": "Iowa", "population": 62.597, "growth": 7.2 },
{"num": 576, "name": "Wellington", "state": "Florida", "population": 62.560, "growth": 61.1 },
{"num": 577, "name": "North Miami", "state": "Florida", "population": 62.435, "growth": 4.4 },
{"num": 578, "name": "Hamilton", "state": "Ohio", "population": 62.407, "growth": 2.9 },
{"num": 579, "name": "North Port", "state": "Florida", "population": 62.345, "growth": 168.1 },
{"num": 580, "name": "Tulare", "state": "California", "population": 62.315, "growth": 35.8 },
{"num": 581, "name": "Coon Rapids", "state": "Minnesota", "population": 62.240, "growth": 0.8 },
{"num": 582, "name": "Buckeye", "state": "Arizona", "population": 62.138, "growth": 536.8 },
{"num": 583, "name": "La Habra", "state": "California", "population": 62.131, "growth": 4.4 },
{"num": 584, "name": "Blaine", "state": "Minnesota", "population": 62.124, "growth": 36.6 },
{"num": 585, "name": "Auburn", "state": "Alabama", "population": 62.059, "growth": 33.9 },
{"num": 586, "name": "Lake Elsinore", "state": "California", "population": 61.981, "growth": 111.7 },
{"num": 587, "name": "Taylor", "state": "Michigan", "population": 61.568, "growth": -6.6 },
{"num": 588, "name": "Burnsville", "state": "Minnesota", "population": 61.481, "growth": 1.9 },
{"num": 589, "name": "Monterey Park", "state": "California", "population": 61.468, "growth": 2.1 },
{"num": 590, "name": "Rocklin", "state": "California", "population": 61.213, "growth": 64.3 },
{"num": 591, "name": "Utica", "state": "New York", "population": 61.100, "growth": 1.0 },
{"num": 592, "name": "Malden", "state": "Massachusetts", "population": 61.068, "growth": 8.4 },
{"num": 593, "name": "National City", "state": "California", "population": 61.060, "growth": 12.4 },
{"num": 594, "name": "Springfield", "state": "Oregon", "population": 60.870, "growth": 13.7 },
{"num": 595, "name": "Terre Haute", "state": "Indiana", "population": 60.825, "growth": 2.1 },
{"num": 596, "name": "Vineland", "state": "New Jersey", "population": 60.818, "growth": 8.9 },
{"num": 597, "name": "San Marcos", "state": "Texas", "population": 60.684, "growth": 66.6 },
{"num": 598, "name": "Lakeville", "state": "Minnesota", "population": 60.633, "growth": 39.0 },
{"num": 599, "name": "West Allis", "state": "Wisconsin", "population": 60.620, "growth": -0.7 },
{"num": 600, "name": "Redmond", "state": "Washington", "population": 60.598, "growth": 32.7 },
{"num": 601, "name": "Cupertino", "state": "California", "population": 60.572, "growth": 15.1 },
{"num": 602, "name": "Taylorsville", "state": "Utah", "population": 60.514, "growth": 2.9 },
{"num": 603, "name": "Bristol", "state": "Connecticut", "population": 60.452, "growth": 0.2 },
{"num": 604, "name": "Moore", "state": "Oklahoma", "population": 60.451, "growth": 46.4 },
{"num": 605, "name": "Gardena", "state": "California", "population": 60.447, "growth": 4.3 },
{"num": 606, "name": "Petaluma", "state": "California", "population": 60.438, "growth": 10.2 },
{"num": 607, "name": "Grand Junction", "state": "Colorado", "population": 60.358, "growth": 32.2 },
{"num": 608, "name": "Casper", "state": "Wyoming", "population": 60.285, "growth": 21.2 },
{"num": 609, "name": "Rowlett", "state": "Texas", "population": 60.236, "growth": 33.5 },
{"num": 610, "name": "La Mesa", "state": "California", "population": 60.089, "growth": 9.6 },
{"num": 611, "name": "Meriden", "state": "Connecticut", "population": 59.988, "growth": 2.9 },
{"num": 612, "name": "Pontiac", "state": "Michigan", "population": 59.917, "growth": -11.4 },
{"num": 613, "name": "St. Clair Shores", "state": "Michigan", "population": 59.903, "growth": -4.9 },
{"num": 614, "name": "Port Orange", "state": "Florida", "population": 59.866, "growth": 28.5 },
{"num": 615, "name": "Lakewood", "state": "Washington", "population": 59.829, "growth": 2.4 },
{"num": 616, "name": "Springfield", "state": "Ohio", "population": 59.680, "growth": -9.4 },
{"num": 617, "name": "Great Falls", "state": "Montana", "population": 59.638, "growth": 4.4 },
{"num": 618, "name": "Chapel Hill", "state": "North Carolina", "population": 59.568, "growth": 24.0 },
{"num": 619, "name": "Huntington Park", "state": "California", "population": 59.430, "growth": -3.2 },
{"num": 620, "name": "Lancaster", "state": "Pennsylvania", "population": 59.339, "growth": 4.5 },
{"num": 621, "name": "Coconut Creek", "state": "Florida", "population": 59.302, "growth": 34.0 },
{"num": 622, "name": "Idaho Falls", "state": "Idaho", "population": 59.184, "growth": 15.7 },
{"num": 623, "name": "San Rafael", "state": "California", "population": 59.162, "growth": 5.3 },
{"num": 624, "name": "Noblesville", "state": "Indiana", "population": 59.093, "growth": 96.6 },
{"num": 625, "name": "Marietta", "state": "Georgia", "population": 59.067, "growth": -3.9 },
{"num": 626, "name": "Owensboro", "state": "Kentucky", "population": 59.042, "growth": 8.8 },
{"num": 627, "name": "Eastvale", "state": "California", "population": 59.039, "growth": 0.0 },
{"num": 628, "name": "Royal Oak", "state": "Michigan", "population": 59.008, "growth": -1.6 },
{"num": 629, "name": "Brentwood", "state": "California", "population": 58.968, "growth": 138.4 },
{"num": 630, "name": "Dubuque", "state": "Iowa", "population": 58.799, "growth": 1.9 },
{"num": 631, "name": "Novi", "state": "Michigan", "population": 58.723, "growth": 23.6 },
{"num": 632, "name": "Des Plaines", "state": "Illinois", "population": 58.677, "growth": 2.7 },
{"num": 633, "name": "Orland Park", "state": "Illinois", "population": 58.619, "growth": 14.0 },
{"num": 634, "name": "Bartlett", "state": "Tennessee", "population": 58.579, "growth": 32.5 },
{"num": 635, "name": "Woodland", "state": "California", "population": 58.567, "growth": 17.7 },
{"num": 636, "name": "Lehi", "state": "Utah", "population": 58.486, "growth": 197.1 },
{"num": 637, "name": "White Plains", "state": "New York", "population": 58.459, "growth": 9.6 },
{"num": 638, "name": "Arcadia", "state": "California", "population": 58.408, "growth": 9.7 },
{"num": 639, "name": "Ocala", "state": "Florida", "population": 58.218, "growth": 22.4 },
{"num": 640, "name": "Sanford", "state": "Florida", "population": 58.111, "growth": 48.2 },
{"num": 641, "name": "Bowie", "state": "Maryland", "population": 58.025, "growth": 11.0 },
{"num": 642, "name": "Kokomo", "state": "Indiana", "population": 57.995, "growth": 23.6 },
{"num": 643, "name": "Santee", "state": "California", "population": 57.787, "growth": 8.9 },
{"num": 644, "name": "Dublin", "state": "California", "population": 57.721, "growth": 88.3 },
{"num": 645, "name": "Medford", "state": "Massachusetts", "population": 57.403, "growth": 3.1 },
{"num": 646, "name": "Midwest City", "state": "Oklahoma", "population": 57.249, "growth": 5.4 },
{"num": 647, "name": "Margate", "state": "Florida", "population": 57.234, "growth": 6.0 },
{"num": 648, "name": "Tinley Park", "state": "Illinois", "population": 57.143, "growth": 16.0 },
{"num": 649, "name": "Pflugerville", "state": "Texas", "population": 57.122, "growth": 137.4 },
{"num": 650, "name": "New Brunswick", "state": "New Jersey", "population": 57.035, "growth": 18.0 },
{"num": 651, "name": "Grand Forks", "state": "North Dakota", "population": 57.011, "growth": 15.7 },
{"num": 652, "name": "Fountain Valley", "state": "California", "population": 56.987, "growth": 3.5 },
{"num": 653, "name": "St. Peters", "state": "Missouri", "population": 56.971, "growth": 10.6 },
{"num": 654, "name": "Diamond Bar", "state": "California", "population": 56.897, "growth": 0.9 },
{"num": 655, "name": "Taunton", "state": "Massachusetts", "population": 56.789, "growth": 1.1 },
{"num": 656, "name": "Oak Lawn", "state": "Illinois", "population": 56.781, "growth": 2.8 },
{"num": 657, "name": "Ankeny", "state": "Iowa", "population": 56.764, "growth": 105.7 },
{"num": 658, "name": "Chicopee", "state": "Massachusetts", "population": 56.741, "growth": 3.6 },
{"num": 659, "name": "Berwyn", "state": "Illinois", "population": 56.368, "growth": 4.4 },
{"num": 660, "name": "Manhattan", "state": "Kansas", "population": 56.308, "growth": 23.1 },
{"num": 661, "name": "Smyrna", "state": "Georgia", "population": 56.146, "growth": 26.0 },
{"num": 662, "name": "Dearborn Heights", "state": "Michigan", "population": 56.145, "growth": -3.8 },
{"num": 663, "name": "Porterville", "state": "California", "population": 56.058, "growth": 22.0 },
{"num": 664, "name": "Doral", "state": "Florida", "population": 56.035, "growth": 165.1 },
{"num": 665, "name": "Hendersonville", "state": "Tennessee", "population": 56.018, "growth": 36.4 },
{"num": 666, "name": "Weymouth Town", "state": "Massachusetts", "population": 55.957, "growth": 0.0 },
{"num": 667, "name": "Rocky Mount", "state": "North Carolina", "population": 55.806, "growth": -5.1 },
{"num": 668, "name": "Corvallis", "state": "Oregon", "population": 55.780, "growth": 12.8 },
{"num": 669, "name": "Valdosta", "state": "Georgia", "population": 55.724, "growth": 20.7 },
{"num": 670, "name": "Hanford", "state": "California", "population": 55.659, "growth": 32.6 },
{"num": 671, "name": "Castle Rock", "state": "Colorado", "population": 55.591, "growth": 165.6 },
{"num": 672, "name": "Greenwood", "state": "Indiana", "population": 55.586, "growth": 51.3 },
{"num": 673, "name": "Hempstead", "state": "New York", "population": 55.547, "growth": 4.4 },
{"num": 674, "name": "Novato", "state": "California", "population": 55.530, "growth": 16.1 },
{"num": 675, "name": "Kettering", "state": "Ohio", "population": 55.525, "growth": -3.7 },
{"num": 676, "name": "Bellevue", "state": "Nebraska", "population": 55.510, "growth": 24.6 },
{"num": 677, "name": "Shoreline", "state": "Washington", "population": 55.439, "growth": 4.2 },
{"num": 678, "name": "Decatur", "state": "Alabama", "population": 55.437, "growth": 2.4 },
{"num": 679, "name": "Paramount", "state": "California", "population": 55.412, "growth": 0.0 },
{"num": 680, "name": "Port Arthur", "state": "Texas", "population": 55.340, "growth": -3.9 },
{"num": 681, "name": "Anderson", "state": "Indiana", "population": 55.305, "growth": -7.2 },
{"num": 682, "name": "Sarasota", "state": "Florida", "population": 55.118, "growth": 4.9 },
{"num": 683, "name": "West Haven", "state": "Connecticut", "population": 54.927, "growth": 4.8 },
{"num": 684, "name": "Rosemead", "state": "California", "population": 54.908, "growth": 2.4 },
{"num": 685, "name": "Highland", "state": "California", "population": 54.854, "growth": 22.3 },
{"num": 686, "name": "Mount Prospect", "state": "Illinois", "population": 54.747, "growth": -2.6 },
{"num": 687, "name": "Colton", "state": "California", "population": 54.621, "growth": 13.6 },
{"num": 688, "name": "Carson City", "state": "Nevada", "population": 54.521, "growth": 3.7 },
{"num": 689, "name": "Pocatello", "state": "Idaho", "population": 54.441, "growth": 5.6 },
{"num": 690, "name": "Bradenton", "state": "Florida", "population": 54.437, "growth": 8.7 },
{"num": 691, "name": "Normal", "state": "Illinois", "population": 54.373, "growth": 19.1 },
{"num": 692, "name": "Richland", "state": "Washington", "population": 54.248, "growth": 39.3 },
{"num": 693, "name": "Euless", "state": "Texas", "population": 54.219, "growth": 17.2 },
{"num": 694, "name": "Blue Springs", "state": "Missouri", "population": 54.148, "growth": 11.6 },
{"num": 695, "name": "Cathedral City", "state": "California", "population": 53.826, "growth": 25.2 },
{"num": 696, "name": "Elyria", "state": "Ohio", "population": 53.775, "growth": -4.0 },
{"num": 697, "name": "Wheaton", "state": "Illinois", "population": 53.715, "growth": -3.3 },
{"num": 698, "name": "Commerce City", "state": "Colorado", "population": 53.696, "growth": 153.9 },
{"num": 699, "name": "Hoboken", "state": "New Jersey", "population": 53.635, "growth": 38.5 },
{"num": 700, "name": "Watsonville", "state": "California", "population": 53.628, "growth": 15.2 },
{"num": 701, "name": "Lake Havasu City", "state": "Arizona", "population": 53.553, "growth": 26.2 },
{"num": 702, "name": "Revere", "state": "Massachusetts", "population": 53.422, "growth": 12.7 },
{"num": 703, "name": "West New York", "state": "New Jersey", "population": 53.366, "growth": 16.0 },
{"num": 704, "name": "Yucaipa", "state": "California", "population": 53.328, "growth": 28.7 },
{"num": 705, "name": "Gilroy", "state": "California", "population": 53.231, "growth": 27.6 },
{"num": 706, "name": "Pensacola", "state": "Florida", "population": 53.193, "growth": -5.1 },
{"num": 707, "name": "Kingsport", "state": "Tennessee", "population": 53.014, "growth": 16.8 },
{"num": 708, "name": "Palm Beach Gardens", "state": "Florida", "population": 52.923, "growth": 45.7 },
{"num": 709, "name": "Delano", "state": "California", "population": 52.733, "growth": 32.6 },
{"num": 710, "name": "West Sacramento", "state": "California", "population": 52.721, "growth": 64.4 },
{"num": 711, "name": "Huntersville", "state": "North Carolina", "population": 52.704, "growth": 101.5 },
{"num": 712, "name": "Perth Amboy", "state": "New Jersey", "population": 52.682, "growth": 11.2 },
{"num": 713, "name": "Southaven", "state": "Mississippi", "population": 52.589, "growth": 78.2 },
{"num": 714, "name": "Harrisonburg", "state": "Virginia", "population": 52.538, "growth": 29.9 },
{"num": 715, "name": "Peabody", "state": "Massachusetts", "population": 52.504, "growth": 8.5 },
{"num": 716, "name": "Placentia", "state": "California", "population": 52.495, "growth": 12.4 },
{"num": 717, "name": "Lenexa", "state": "Kansas", "population": 52.490, "growth": 29.9 },
{"num": 718, "name": "DeSoto", "state": "Texas", "population": 52.486, "growth": 38.7 },
{"num": 719, "name": "Burlington", "state": "North Carolina", "population": 52.472, "growth": 14.2 },
{"num": 720, "name": "Elkhart", "state": "Indiana", "population": 52.348, "growth": -0.5 },
{"num": 721, "name": "La Crosse", "state": "Wisconsin", "population": 52.306, "growth": 0.6 },
{"num": 722, "name": "Oak Park", "state": "Illinois", "population": 52.287, "growth": -0.4 },
{"num": 723, "name": "Florissant", "state": "Missouri", "population": 52.268, "growth": -3.0 },
{"num": 724, "name": "Sammamish", "state": "Washington", "population": 52.253, "growth": 50.1 },
{"num": 725, "name": "Albany", "state": "Oregon", "population": 52.175, "growth": 27.0 },
{"num": 726, "name": "Hoffman Estates", "state": "Illinois", "population": 52.138, "growth": 4.9 },
{"num": 727, "name": "Milford", "state": "Connecticut", "population": 52.087, "growth": 2.7 },
{"num": 728, "name": "Glendora", "state": "California", "population": 52.009, "growth": 5.0 },
{"num": 729, "name": "Brookhaven", "state": "Georgia", "population": 51.910, "growth": 0.0 },
{"num": 730, "name": "Palm Desert", "state": "California", "population": 51.869, "growth": 16.3 },
{"num": 731, "name": "Joplin", "state": "Missouri", "population": 51.818, "growth": 13.5 },
{"num": 732, "name": "Enid", "state": "Oklahoma", "population": 51.776, "growth": 10.3 },
{"num": 733, "name": "Bonita Springs", "state": "Florida", "population": 51.704, "growth": 56.4 },
{"num": 734, "name": "Caldwell", "state": "Idaho", "population": 51.686, "growth": 87.0 },
{"num": 735, "name": "Minnetonka", "state": "Minnesota", "population": 51.669, "growth": 1.0 },
{"num": 736, "name": "Pinellas Park", "state": "Florida", "population": 51.617, "growth": 9.4 },
{"num": 737, "name": "Battle Creek", "state": "Michigan", "population": 51.589, "growth": -3.3 },
{"num": 738, "name": "Casa Grande", "state": "Arizona", "population": 51.460, "growth": 91.0 },
{"num": 739, "name": "Grand Island", "state": "Nebraska", "population": 51.440, "growth": 18.1 },
{"num": 740, "name": "Grapevine", "state": "Texas", "population": 51.404, "growth": 20.4 },
{"num": 741, "name": "Kentwood", "state": "Michigan", "population": 51.357, "growth": 13.0 },
{"num": 742, "name": "Tigard", "state": "Oregon", "population": 51.253, "growth": 19.7 },
{"num": 743, "name": "Apple Valley", "state": "Minnesota", "population": 51.221, "growth": 11.4 },
{"num": 744, "name": "Plainfield", "state": "New Jersey", "population": 51.217, "growth": 7.0 },
{"num": 745, "name": "Leesburg", "state": "Virginia", "population": 51.209, "growth": 78.3 },
{"num": 746, "name": "Coral Gables", "state": "Florida", "population": 51.117, "growth": 19.6 },
{"num": 747, "name": "Lakewood", "state": "Ohio", "population": 50.656, "growth": -10.3 },
{"num": 748, "name": "Burien", "state": "Washington", "population": 50.467, "growth": 58.6 },
{"num": 749, "name": "Logan", "state": "Utah", "population": 50.371, "growth": 17.9 },
{"num": 750, "name": "Olympia", "state": "Washington", "population": 50.302, "growth": 16.7 },
{"num": 751, "name": "Aliso Viejo", "state": "California", "population": 50.195, "growth": 25.4 },
{"num": 752, "name": "Galveston", "state": "Texas", "population": 50.180, "growth": -12.7 },
{"num": 753, "name": "Poway", "state": "California", "population": 50.157, "growth": 3.9 },
{"num": 754, "name": "Edina", "state": "Minnesota", "population": 50.138, "growth": 5.7 },
{"num": 755, "name": "Cerritos", "state": "California", "population": 49.975, "growth": -3.0 },
{"num": 756, "name": "Troy", "state": "New York", "population": 49.906, "growth": 1.3 },
{"num": 757, "name": "Charleston", "state": "West Virginia", "population": 49.736, "growth": -6.7 },
{"num": 758, "name": "Downers Grove", "state": "Illinois", "population": 49.732, "growth": 0.1 },
{"num": 759, "name": "Azusa", "state": "California", "population": 49.690, "growth": 10.8 },
{"num": 760, "name": "Methuen", "state": "Massachusetts", "population": 49.660, "growth": 12.9 },
{"num": 761, "name": "Wilson", "state": "North Carolina", "population": 49.643, "growth": 10.1 },
{"num": 762, "name": "Monroe", "state": "Louisiana", "population": 49.598, "growth": -6.4 },
{"num": 763, "name": "Parker", "state": "Colorado", "population": 49.550, "growth": 100.2 },
{"num": 764, "name": "La Mirada", "state": "California", "population": 49.520, "growth": 5.5 },
{"num": 765, "name": "Minot", "state": "North Dakota", "population": 49.450, "growth": 35.1 },
{"num": 766, "name": "Saginaw", "state": "Michigan", "population": 49.347, "growth": -19.8 },
{"num": 767, "name": "Bedford", "state": "Texas", "population": 49.337, "growth": 4.4 },
{"num": 768, "name": "Rancho Santa Margarita", "state": "California", "population": 49.324, "growth": 4.8 },
{"num": 769, "name": "Cypress", "state": "California", "population": 49.290, "growth": 5.7 },
{"num": 770, "name": "Murray", "state": "Utah", "population": 49.250, "growth": 8.0 },
{"num": 771, "name": "Cuyahoga Falls", "state": "Ohio", "population": 49.146, "growth": -0.5 },
{"num": 772, "name": "Coeur d'Alene", "state": "Idaho", "population": 49.122, "growth": 40.6 },
{"num": 773, "name": "Harrisburg", "state": "Pennsylvania", "population": 49.081, "growth": 0.4 },
{"num": 774, "name": "Covina", "state": "California", "population": 48.984, "growth": 4.3 },
{"num": 775, "name": "Stillwater", "state": "Oklahoma", "population": 48.967, "growth": 24.7 },
{"num": 776, "name": "Niagara Falls", "state": "New York", "population": 48.916, "growth": -11.8 },
{"num": 777, "name": "Collierville", "state": "Tennessee", "population": 48.863, "growth": 48.1 },
{"num": 778, "name": "Summerville", "state": "South Carolina", "population": 48.848, "growth": 72.7 },
{"num": 779, "name": "Sheboygan", "state": "Wisconsin", "population": 48.797, "growth": -3.8 },
{"num": 780, "name": "Middletown", "state": "Ohio", "population": 48.760, "growth": -5.5 },
{"num": 781, "name": "Dunwoody", "state": "Georgia", "population": 48.733, "growth": 0.0 },
{"num": 782, "name": "Huntington", "state": "West Virginia", "population": 48.638, "growth": -6.0 },
{"num": 783, "name": "Maricopa", "state": "Arizona", "population": 48.602, "growth": 2680.4 },
{"num": 784, "name": "Roswell", "state": "New Mexico", "population": 48.544, "growth": 7.4 },
{"num": 785, "name": "Cedar Hill", "state": "Texas", "population": 48.507, "growth": 48.0 },
{"num": 786, "name": "East Lansing", "state": "Michigan", "population": 48.471, "growth": 4.0 },
{"num": 787, "name": "Apopka", "state": "Florida", "population": 48.382, "growth": 73.9 },
{"num": 788, "name": "Mishawaka", "state": "Indiana", "population": 48.261, "growth": 2.6 },
{"num": 789, "name": "Portage", "state": "Michigan", "population": 48.177, "growth": 7.2 },
{"num": 790, "name": "St. Louis Park", "state": "Minnesota", "population": 48.171, "growth": 9.0 },
{"num": 791, "name": "Newark", "state": "Ohio", "population": 47.986, "growth": 3.5 },
{"num": 792, "name": "Ceres", "state": "California", "population": 47.963, "growth": 37.6 },
{"num": 793, "name": "Alexandria", "state": "Louisiana", "population": 47.889, "growth": 2.9 },
{"num": 794, "name": "Chesterfield", "state": "Missouri", "population": 47.864, "growth": 2.1 },
{"num": 795, "name": "Salina", "state": "Kansas", "population": 47.813, "growth": 4.4 },
{"num": 796, "name": "Lawrence", "state": "Indiana", "population": 47.809, "growth": 22.2 },
{"num": 797, "name": "Euclid", "state": "Ohio", "population": 47.676, "growth": -9.3 },
{"num": 798, "name": "Roseville", "state": "Michigan", "population": 47.637, "growth": -0.8 },
{"num": 799, "name": "Texas City", "state": "Texas", "population": 47.618, "growth": 14.0 },
{"num": 800, "name": "Wauwatosa", "state": "Wisconsin", "population": 47.614, "growth": 1.0 },
{"num": 801, "name": "Twin Falls", "state": "Idaho", "population": 47.468, "growth": 35.8 },
{"num": 802, "name": "Glenview", "state": "Illinois", "population": 47.446, "growth": 9.9 },
{"num": 803, "name": "East Providence", "state": "Rhode Island", "population": 47.408, "growth": -2.7 },
{"num": 804, "name": "Palm Springs", "state": "California", "population": 47.371, "growth": 10.2 },
{"num": 805, "name": "San Luis Obispo", "state": "California", "population": 47.339, "growth": 6.6 },
{"num": 806, "name": "Madison", "state": "Alabama", "population": 46.962, "growth": 57.6 },
{"num": 807, "name": "Jeffersonville", "state": "Indiana", "population": 46.960, "growth": 56.7 },
{"num": 808, "name": "San Jacinto", "state": "California", "population": 46.951, "growth": 96.4 },
{"num": 809, "name": "Mentor", "state": "Ohio", "population": 46.901, "growth": -6.8 },
{"num": 810, "name": "Mansfield", "state": "Ohio", "population": 46.830, "growth": -9.4 },
{"num": 811, "name": "Hattiesburg", "state": "Mississippi", "population": 46.805, "growth": 1.5 },
{"num": 812, "name": "Draper", "state": "Utah", "population": 46.774, "growth": 83.3 },
{"num": 813, "name": "Middletown", "state": "Connecticut", "population": 46.756, "growth": 2.3 },
{"num": 814, "name": "Wylie", "state": "Texas", "population": 46.708, "growth": 198.9 },
{"num": 815, "name": "Columbus", "state": "Indiana", "population": 46.690, "growth": 18.7 },
{"num": 816, "name": "Smyrna", "state": "Tennessee", "population": 46.607, "growth": 67.6 },
{"num": 817, "name": "Charlottesville", "state": "Virginia", "population": 46.597, "growth": 16.1 },
{"num": 818, "name": "Lincoln", "state": "California", "population": 46.474, "growth": 295.7 },
{"num": 819, "name": "Lacey", "state": "Washington", "population": 46.409, "growth": 46.4 },
{"num": 820, "name": "Littleton", "state": "Colorado", "population": 46.368, "growth": 14.6 },
{"num": 821, "name": "Beavercreek", "state": "Ohio", "population": 46.277, "growth": 20.5 },
{"num": 822, "name": "Kannapolis", "state": "North Carolina", "population": 46.144, "growth": 23.4 },
{"num": 823, "name": "Everett", "state": "Massachusetts", "population": 46.050, "growth": 20.2 },
{"num": 824, "name": "Binghamton", "state": "New York", "population": 46.032, "growth": -2.6 },
{"num": 825, "name": "Elmhurst", "state": "Illinois", "population": 45.957, "growth": 6.6 },
{"num": 826, "name": "Keller", "state": "Texas", "population": 45.758, "growth": 63.5 },
{"num": 827, "name": "Biloxi", "state": "Mississippi", "population": 45.637, "growth": -9.9 },
{"num": 828, "name": "Apex", "state": "North Carolina", "population": 45.585, "growth": 114.6 },
{"num": 829, "name": "West Lafayette", "state": "Indiana", "population": 45.550, "growth": 58.7 },
{"num": 830, "name": "Titusville", "state": "Florida", "population": 45.393, "growth": 10.7 },
{"num": 831, "name": "Altoona", "state": "Pennsylvania", "population": 45.344, "growth": -8.2 },
{"num": 832, "name": "Newark", "state": "California", "population": 45.336, "growth": 6.2 },
{"num": 833, "name": "St. Cloud", "state": "Florida", "population": 45.298, "growth": 106.2 },
{"num": 834, "name": "Dublin", "state": "Ohio", "population": 45.098, "growth": 42.4 },
{"num": 835, "name": "Cleveland Heights", "state": "Ohio", "population": 44.962, "growth": -11.2 },
{"num": 836, "name": "Sayreville", "state": "New Jersey", "population": 44.920, "growth": 10.8 },
{"num": 837, "name": "Cutler Bay", "state": "Florida", "population": 44.865, "growth": 48.0 },
{"num": 838, "name": "Hackensack", "state": "New Jersey", "population": 44.834, "growth": 4.6 },
{"num": 839, "name": "Pine Bluff", "state": "Arkansas", "population": 44.772, "growth": -18.6 },
{"num": 840, "name": "Strongsville", "state": "Ohio", "population": 44.668, "growth": 1.7 },
{"num": 841, "name": "Coachella", "state": "California", "population": 44.635, "growth": 95.2 },
{"num": 842, "name": "Bentonville", "state": "Arkansas", "population": 44.499, "growth": 119.1 },
{"num": 843, "name": "Fort Pierce", "state": "Florida", "population": 44.484, "growth": 10.4 },
{"num": 844, "name": "Danville", "state": "California", "population": 44.400, "growth": 6.3 },
{"num": 845, "name": "Barnstable Town", "state": "Massachusetts", "population": 44.331, "growth": -7.7 },
{"num": 846, "name": "Oakland Park", "state": "Florida", "population": 44.319, "growth": 5.2 },
{"num": 847, "name": "Attleboro", "state": "Massachusetts", "population": 44.284, "growth": 5.5 },
{"num": 848, "name": "Blacksburg", "state": "Virginia", "population": 44.215, "growth": 10.9 },
{"num": 849, "name": "Haltom City", "state": "Texas", "population": 44.206, "growth": 13.0 },
{"num": 850, "name": "Lompoc", "state": "California", "population": 44.164, "growth": 7.1 },
{"num": 851, "name": "Urbandale", "state": "Iowa", "population": 44.062, "growth": 49.3 },
{"num": 852, "name": "York", "state": "Pennsylvania", "population": 43.992, "growth": 6.6 },
{"num": 853, "name": "North Miami Beach", "state": "Florida", "population": 43.971, "growth": 5.3 },
{"num": 854, "name": "El Centro", "state": "California", "population": 43.956, "growth": 15.2 },
{"num": 855, "name": "Cleveland", "state": "Tennessee", "population": 43.898, "growth": 17.1 },
{"num": 856, "name": "Beaumont", "state": "California", "population": 43.811, "growth": 283.6 },
{"num": 857, "name": "Lombard", "state": "Illinois", "population": 43.797, "growth": 2.7 },
{"num": 858, "name": "Bountiful", "state": "Utah", "population": 43.784, "growth": 5.7 },
{"num": 859, "name": "North Lauderdale", "state": "Florida", "population": 43.703, "growth": 13.2 },
{"num": 860, "name": "Burleson", "state": "Texas", "population": 43.625, "growth": 98.5 },
{"num": 861, "name": "Ocoee", "state": "Florida", "population": 43.608, "growth": 75.7 },
{"num": 862, "name": "Oro Valley", "state": "Arizona", "population": 43.565, "growth": 32.9 },
{"num": 863, "name": "Bozeman", "state": "Montana", "population": 43.405, "growth": 54.5 },
{"num": 864, "name": "Sierra Vista", "state": "Arizona", "population": 43.355, "growth": 14.6 },
{"num": 865, "name": "Freeport", "state": "New York", "population": 43.334, "growth": -1.0 },
{"num": 866, "name": "Pittsfield", "state": "Massachusetts", "population": 43.303, "growth": -5.2 },
{"num": 867, "name": "DeKalb", "state": "Illinois", "population": 43.211, "growth": 10.2 },
{"num": 868, "name": "San Bruno", "state": "California", "population": 43.185, "growth": 7.5 },
{"num": 869, "name": "Jefferson City", "state": "Missouri", "population": 43.169, "growth": 6.3 },
{"num": 870, "name": "Altamonte Springs", "state": "Florida", "population": 43.159, "growth": 4.5 },
{"num": 871, "name": "Bell Gardens", "state": "California", "population": 43.106, "growth": -2.2 },
{"num": 872, "name": "Morgan Hill", "state": "California", "population": 42.948, "growth": 25.7 },
{"num": 873, "name": "Bothell", "state": "Washington", "population": 42.939, "growth": 40.9 },
{"num": 874, "name": "Fond du Lac", "state": "Wisconsin", "population": 42.933, "growth": 1.6 },
{"num": 875, "name": "Farmington", "state": "New Mexico", "population": 42.871, "growth": 11.5 },
{"num": 876, "name": "Salem", "state": "Massachusetts", "population": 42.869, "growth": 5.9 },
{"num": 877, "name": "Fairfield", "state": "Ohio", "population": 42.767, "growth": 1.5 },
{"num": 878, "name": "Rancho Palos Verdes", "state": "California", "population": 42.732, "growth": 3.6 },
{"num": 879, "name": "Moline", "state": "Illinois", "population": 42.681, "growth": -2.9 },
{"num": 880, "name": "Concord", "state": "New Hampshire", "population": 42.620, "growth": 4.6 },
{"num": 881, "name": "Rockwall", "state": "Texas", "population": 42.566, "growth": 126.0 },
{"num": 882, "name": "Plainfield", "state": "Illinois", "population": 42.527, "growth": 209.3 },
{"num": 883, "name": "Burlington", "state": "Vermont", "population": 42.452, "growth": 6.5 },
{"num": 884, "name": "Rohnert Park", "state": "California", "population": 42.407, "growth": 2.5 },
{"num": 885, "name": "Urbana", "state": "Illinois", "population": 42.311, "growth": 11.7 },
{"num": 886, "name": "Midland", "state": "Michigan", "population": 42.200, "growth": 0.9 },
{"num": 887, "name": "Prescott Valley", "state": "Arizona", "population": 42.197, "growth": 72.7 },
{"num": 888, "name": "State College", "state": "Pennsylvania", "population": 42.161, "growth": 9.8 },
{"num": 889, "name": "Kearny", "state": "New Jersey", "population": 42.137, "growth": 4.0 },
{"num": 890, "name": "Danville", "state": "Virginia", "population": 42.082, "growth": -12.7 },
{"num": 891, "name": "Belleville", "state": "Illinois", "population": 42.034, "growth": -0.7 },
{"num": 892, "name": "Linden", "state": "New Jersey", "population": 42.021, "growth": 6.5 },
{"num": 893, "name": "Moorhead", "state": "Minnesota", "population": 42.005, "growth": 29.3 },
{"num": 894, "name": "Brea", "state": "California", "population": 41.944, "growth": 18.0 },
{"num": 895, "name": "Riverton", "state": "Utah", "population": 41.900, "growth": 65.5 },
{"num": 896, "name": "Prescott", "state": "Arizona", "population": 41.899, "growth": 21.9 },
{"num": 897, "name": "The Colony", "state": "Texas", "population": 41.779, "growth": 54.3 },
{"num": 898, "name": "Manassas", "state": "Virginia", "population": 41.764, "growth": 19.7 },
{"num": 899, "name": "Brentwood", "state": "Tennessee", "population": 41.763, "growth": 58.5 },
{"num": 900, "name": "Westfield", "state": "Massachusetts", "population": 41.690, "growth": 4.0 },
{"num": 901, "name": "Hutchinson", "state": "Kansas", "population": 41.569, "growth": -0.6 },
{"num": 902, "name": "Leominster", "state": "Massachusetts", "population": 41.569, "growth": 0.2 },
{"num": 903, "name": "Bartlett", "state": "Illinois", "population": 41.545, "growth": 12.8 },
{"num": 904, "name": "Buffalo Grove", "state": "Illinois", "population": 41.503, "growth": -4.0 },
{"num": 905, "name": "Woonsocket", "state": "Rhode Island", "population": 41.475, "growth": -4.1 },
{"num": 906, "name": "Edmonds", "state": "Washington", "population": 41.375, "growth": 4.6 },
{"num": 907, "name": "Marana", "state": "Arizona", "population": 41.315, "growth": 187.3 },
{"num": 908, "name": "Shelton", "state": "Connecticut", "population": 41.296, "growth": 8.1 },
{"num": 909, "name": "Cedar Falls", "state": "Iowa", "population": 41.255, "growth": 13.9 },
{"num": 910, "name": "Beverly", "state": "Massachusetts", "population": 41.186, "growth": 3.3 },
{"num": 911, "name": "Coppell", "state": "Texas", "population": 41.159, "growth": 12.5 },
{"num": 912, "name": "Findlay", "state": "Ohio", "population": 41.149, "growth": 4.9 },
{"num": 913, "name": "Campbell", "state": "California", "population": 41.117, "growth": 5.6 },
{"num": 914, "name": "Mankato", "state": "Minnesota", "population": 41.044, "growth": 25.9 },
{"num": 915, "name": "Covington", "state": "Kentucky", "population": 40.997, "growth": -4.6 },
{"num": 916, "name": "Peachtree Corners", "state": "Georgia", "population": 40.978, "growth": 0.0 },
{"num": 917, "name": "Ormond Beach", "state": "Florida", "population": 40.970, "growth": 12.1 },
{"num": 918, "name": "Huntsville", "state": "Texas", "population": 40.938, "growth": 16.4 },
{"num": 919, "name": "Sumter", "state": "South Carolina", "population": 40.816, "growth": 0.4 },
{"num": 921, "name": "Wilkes-Barre", "state": "Pennsylvania", "population": 40.780, "growth": -5.1 },
{"num": 920, "name": "Quincy", "state": "Illinois", "population": 40.780, "growth": 0.2 },
{"num": 922, "name": "La Puente", "state": "California", "population": 40.745, "growth": -0.9 },
{"num": 923, "name": "Holyoke", "state": "Massachusetts", "population": 40.684, "growth": 2.0 },
{"num": 924, "name": "Sherman", "state": "Texas", "population": 40.667, "growth": 15.5 },
{"num": 925, "name": "Goose Creek", "state": "South Carolina", "population": 40.633, "growth": 28.7 },
{"num": 926, "name": "Maplewood", "state": "Minnesota", "population": 40.567, "growth": 14.6 },
{"num": 927, "name": "Streamwood", "state": "Illinois", "population": 40.554, "growth": 10.7 },
{"num": 928, "name": "Fitchburg", "state": "Massachusetts", "population": 40.545, "growth": 3.9 },
{"num": 929, "name": "Hilton Head Island", "state": "South Carolina", "population": 40.512, "growth": 19.2 },
{"num": 930, "name": "La Quinta", "state": "California", "population": 40.476, "growth": 64.6 },
{"num": 931, "name": "Crystal Lake", "state": "Illinois", "population": 40.448, "growth": 5.4 },
{"num": 932, "name": "Hagerstown", "state": "Maryland", "population": 40.432, "growth": 9.9 },
{"num": 933, "name": "San Gabriel", "state": "California", "population": 40.424, "growth": 1.3 },
{"num": 934, "name": "Hickory", "state": "North Carolina", "population": 40.374, "growth": 7.1 },
{"num": 936, "name": "Winter Garden", "state": "Florida", "population": 40.356, "growth": 159.5 },
{"num": 935, "name": "Carol Stream", "state": "Illinois", "population": 40.356, "growth": -0.3 },
{"num": 937, "name": "Warren", "state": "Ohio", "population": 40.245, "growth": -16.3 },
{"num": 938, "name": "Calexico", "state": "California", "population": 40.053, "growth": 46.4 },
{"num": 939, "name": "Florence", "state": "Alabama", "population": 40.026, "growth": 10.1 },
{"num": 940, "name": "Shakopee", "state": "Minnesota", "population": 39.981, "growth": 89.6 },
{"num": 941, "name": "Norwich", "state": "Connecticut", "population": 39.899, "growth": 10.4 },
{"num": 942, "name": "Duncanville", "state": "Texas", "population": 39.826, "growth": 10.3 },
{"num": 943, "name": "New Berlin", "state": "Wisconsin", "population": 39.825, "growth": 3.6 },
{"num": 944, "name": "Marlborough", "state": "Massachusetts", "population": 39.818, "growth": 8.7 },
{"num": 945, "name": "Oakley", "state": "California", "population": 39.813, "growth": 54.0 },
{"num": 946, "name": "Lancaster", "state": "Ohio", "population": 39.766, "growth": 11.9 },
{"num": 947, "name": "Romeoville", "state": "Illinois", "population": 39.719, "growth": 79.8 },
{"num": 948, "name": "Culver City", "state": "California", "population": 39.717, "growth": 2.1 },
{"num": 949, "name": "Greenacres", "state": "Florida", "population": 39.676, "growth": 39.0 },
{"num": 950, "name": "Meridian", "state": "Mississippi", "population": 39.661, "growth": -3.9 },
{"num": 951, "name": "Puyallup", "state": "Washington", "population": 39.659, "growth": 14.8 },
{"num": 952, "name": "Woburn", "state": "Massachusetts", "population": 39.555, "growth": 5.7 },
{"num": 953, "name": "Bremerton", "state": "Washington", "population": 39.520, "growth": 6.1 },
{"num": 954, "name": "Hallandale Beach", "state": "Florida", "population": 39.488, "growth": 14.8 },
{"num": 955, "name": "Clovis", "state": "New Mexico", "population": 39.480, "growth": 21.2 },
{"num": 956, "name": "Annapolis", "state": "Maryland", "population": 39.474, "growth": 9.6 },
{"num": 957, "name": "Weslaco", "state": "Texas", "population": 39.474, "growth": 37.1 },
{"num": 958, "name": "Cape Girardeau", "state": "Missouri", "population": 39.462, "growth": 11.2 },
{"num": 959, "name": "Bullhead City", "state": "Arizona", "population": 39.445, "growth": 16.1 },
{"num": 960, "name": "Chelsea", "state": "Massachusetts", "population": 39.398, "growth": 12.2 },
{"num": 961, "name": "Grove City", "state": "Ohio", "population": 39.388, "growth": 42.4 },
{"num": 962, "name": "Atlantic City", "state": "New Jersey", "population": 39.260, "growth": -2.9 },
{"num": 963, "name": "Pacifica", "state": "California", "population": 39.260, "growth": 2.2 },
{"num": 964, "name": "Germantown", "state": "Tennessee", "population": 39.240, "growth": 3.8 },
{"num": 965, "name": "Northglenn", "state": "Colorado", "population": 39.197, "growth": 20.8 },
{"num": 966, "name": "Wausau", "state": "Wisconsin", "population": 39.094, "growth": 1.2 },
{"num": 967, "name": "Hurst", "state": "Texas", "population": 39.016, "growth": 7.3 },
{"num": 968, "name": "Stanton", "state": "California", "population": 38.872, "growth": 3.4 },
{"num": 969, "name": "Lancaster", "state": "Texas", "population": 38.801, "growth": 49.2 },
{"num": 970, "name": "Friendswood", "state": "Texas", "population": 38.800, "growth": 32.8 },
{"num": 971, "name": "Gainesville", "state": "Georgia", "population": 38.712, "growth": 47.0 },
{"num": 972, "name": "Montclair", "state": "California", "population": 38.690, "growth": 14.0 },
{"num": 973, "name": "Rock Island", "state": "Illinois", "population": 38.620, "growth": -2.5 },
{"num": 974, "name": "Oviedo", "state": "Florida", "population": 38.551, "growth": 45.8 },
{"num": 975, "name": "Carpentersville", "state": "Illinois", "population": 38.512, "growth": 23.7 },
{"num": 976, "name": "Lake Oswego", "state": "Oregon", "population": 38.496, "growth": 7.8 },
{"num": 977, "name": "Muskogee", "state": "Oklahoma", "population": 38.456, "growth": -1.8 },
{"num": 978, "name": "Hobbs", "state": "New Mexico", "population": 38.416, "growth": 34.2 },
{"num": 979, "name": "Muskegon", "state": "Michigan", "population": 38.401, "growth": -4.1 },
{"num": 980, "name": "Westerville", "state": "Ohio", "population": 38.384, "growth": 8.1 },
{"num": 981, "name": "Little Elm", "state": "Texas", "population": 38.341, "growth": 749.3 },
{"num": 982, "name": "Hanover Park", "state": "Illinois", "population": 38.333, "growth": 0.1 },
{"num": 983, "name": "Panama City", "state": "Florida", "population": 38.286, "growth": 3.9 },
{"num": 984, "name": "Florence", "state": "South Carolina", "population": 38.228, "growth": 21.2 },
{"num": 985, "name": "Wake Forest", "state": "North Carolina", "population": 38.199, "growth": 192.1 },
{"num": 986, "name": "Huber Heights", "state": "Ohio", "population": 38.176, "growth": -0.1 },
{"num": 987, "name": "Martinez", "state": "California", "population": 38.137, "growth": 6.1 },
{"num": 988, "name": "Wheeling", "state": "Illinois", "population": 38.079, "growth": 4.9 },
{"num": 989, "name": "Apache Junction", "state": "Arizona", "population": 38.074, "growth": 18.6 },
{"num": 990, "name": "Pleasant Grove", "state": "Utah", "population": 38.052, "growth": 61.9 },
{"num": 991, "name": "Brookfield", "state": "Wisconsin", "population": 38.025, "growth": -1.8 },
{"num": 992, "name": "Delaware", "state": "Ohio", "population": 37.995, "growth": 46.7 },
{"num": 993, "name": "Roy", "state": "Utah", "population": 37.964, "growth": 14.0 },
{"num": 994, "name": "Valley Stream", "state": "New York", "population": 37.962, "growth": 4.4 },
{"num": 995, "name": "Schertz", "state": "Texas", "population": 37.938, "growth": 80.2 },
{"num": 996, "name": "Spanish Fork", "state": "Utah", "population": 37.935, "growth": 82.8 },
{"num": 997, "name": "Keizer", "state": "Oregon", "population": 37.895, "growth": 17.0 },
{"num": 998, "name": "Leander", "state": "Texas", "population": 37.889, "growth": 348.4 },
{"num": 999, "name": "Lima", "state": "Ohio", "population": 37.873, "growth": -9.3 },
{"num": 1000, "name": "Spartanburg", "state": "South Carolina", "population": 37.867, "growth": -5.6 }
]
}
